#	type	key	pattern	pilot	spec	freq	dFreq	ind	rank	tfIdf	depth	vScore	vBagFreq	isInfered	isGraph	isDeriv	isPref	isSyntag	isMorph	isSem
121	T	n: regulation	N	Regulation	1.61	8	2	0.75	121	4	1									
144	T	n: rate	N	rates	0.93	8	2	0.25	144	4	1									
104	T	n: fund	N	Fund	2.1	84	30	0.57	104	2.8	1									
98	T	n: asset	N	assets	2.39	66	30	0.47	98	2.2	1									
115	T	n: china	N	China	1.82	13	6	0.46	115	2.17	1									
9	T	nnn: currency exchange risk	N N N	currency exchange risk	4.65	8	4	1	9	2	3									
18	T	nnn: money market fund	N N N	money market funds	4.35	4	2	0.5	18	2	3									
19	T	aan: financial derivative instrument	A A N	financial derivative instruments	4.35	4	2	1	19	2	3									
20	T	nn: repurchase agreement	N N	repurchase agreements	4.35	4	2	1	20	2	2									
23	T	an: 3-month period	A N	3-month period	4.35	4	2	1	23	2	2									
40	T	nn: bloomberg barclays	N N	Bloomberg Barclays	4.05	2	1	0.5	40	2	2									
55	T	an: mid-sized company	A N	mid-sized companies	4.05	2	1	1	55	2	2									
92	T	n: volatility	N	volatility	2.72	4	2	0.75	92	2	1									
94	T	an: real estate	A N	real estate	2.59	2	1	0.5	94	2	2									
99	T	n: fundamental	N	fundamentals	2.38	2	1	0.5	99	2	1									
107	T	n: benchmark	N	benchmark	2.08	2	1	1	107	2	1									
111	T	nn: latin american	N N	Latin American	2.01	2	1	0.5	111	2	2									
113	T	n: currency	N	currency	1.87	20	10	0.3	113	2	1									
127	T	n: asia	N	Asia	1.51	2	1	0.5	127	2	1									
169	T	n: year	N	Years	0.13	4	2	1	169	2	1									
133	T	n: risk	N	risk	1.31	9	5	0.11	133	1.8	1									
124	T	n: share	N	shares	1.56	39	22	0.59	124	1.77	1									
91	T	a: corporate	A	corporate	2.82	14	8	0.43	91	1.75	1									
143	T	n: company	N	companies	0.97	34	20	0.44	143	1.7	1									
85	T	n: liquidity	N	liquidity	3.11	5	3	0.2	85	1.67	1									
88	T	a: high-yield	A	high-yield	2.92	5	3	0.8	88	1.67	1									
110	T	an: small company	A N	small companies	2.04	5	3	1	110	1.67	2									
140	T	n: market	N	market	1.06	19	12	0.16	140	1.58	1									
29	T	an: convertible bond	A N	convertible bonds	4.23	3	2	0.67	29	1.5	2									
11	T	nn: investment grade	N N	Investment grade	4.6	7	5	0.43	11	1.4	2									
130	T	n: structure	N	structure	1.44	7	5	0.29	130	1.4	1									
117	T	n: debt	N	debt	1.74	12	9	0.25	117	1.33	1									
165	T	n: government	N	government	0.35	4	3	0.25	165	1.33	1									
132	T	a: average	A	average	1.33	5	4	0.2	132	1.25	1									
153	T	n: europe	N	Europe	0.71	5	4	0.4	153	1.25	1									
160	T	n: world	N	World	0.56	5	4	0.2	160	1.25	1									
15	T	nn: earnings growth	N N	earnings growth	4.53	6	5	0.83	15	1.2	2									
105	T	n: investor	N	Investors	2.09	36	30	0.83	105	1.2	1									
10	T	n: hedging	N	hedging	4.6	7	6	0.43	10	1.17	1									
82	T	an: medium term	A N	medium term	3.38	30	27	1	82	1.11	2									
106	T	n: exposure	N	exposure	2.08	11	10	0.36	106	1.1	1									
119	T	n: dividend	N	dividend	1.66	12	11	0.92	119	1.09	1									
79	T	n: governance	N	Governance	3.44	30	28	0.93	79	1.07	1									
86	T	a: environmental	A	Environmental	3	30	28	0.93	86	1.07	1									
95	T	a: social	A	Social	2.58	30	28	0.93	95	1.07	1									
101	T	n: index	N	index	2.24	32	30	0.91	101	1.07	1									
116	T	n: account	N	account	1.78	30	28	1	116	1.07	1									
97	T	n: criterion	N	criteria	2.53	31	30	0.97	97	1.03	1									
1	T	npn: investment of fund	N P N	investments of the Fund	5.23	30	30	0.97	1	1	2									
2	T	nnn: bank business day	N N N	bank business days	5.23	30	30	1	2	1	3									
3	T	nn: investment team	N N	investment team	5.23	30	30	1	3	1	2									
4	T	ncnn: objective and investment policy	N C N N	Objectives and Investment Policy	5.23	30	30	1	4	1	3									
5	T	nnan: asset management sustainable investment	N N A N	ASSET MANAGEMENT Sustainable Investment	5.2	28	28	1	5	1	4									
6	T	nann: management sustainable investment policy	N A N N	MANAGEMENT Sustainable Investment Policy	5.2	28	28	1	6	1	4									
7	T	annn: bnp pariba asset management	A N N N	BNP PARIBAS ASSET MANAGEMENT	5.2	28	28	1	7	1	4									
8	T	nn: share class	N N	share class	4.65	8	8	1	8	1	2									
12	T	an: specific license	A N	specific license	4.53	6	6	1	12	1	2									
13	T	nn: debt instrument	N N	debt instruments	4.53	6	6	1	13	1	2									
14	T	ann: mainland china share	A N N	Mainland China shares	4.53	6	6	1	14	1	3									
16	T	an: chinese authority	A N	Chinese authorities	4.53	6	6	1	16	1	2									
17	T	nn: ice bofaml	N N	ICE BofAML	4.45	5	5	0.6	17	1	2									
17	V[s]	nnn: ice bofaml euro	N N N	ICE BofAML Euro	4.05	2	2	1	53	1	3	0.4	2	0	0	0	0	1	0	0
21	T	nn: hedging technique	N N	hedging technique	4.35	4	4	1	21	1	2									
22	T	nnn: portfolio exposure currency	N N N	portfolio exposure currency	4.35	4	4	1	22	1	3									
24	T	nn: portfolio return	N N	portfolio return	4.35	4	4	1	24	1	2									
25	T	nn: barclays euro	N N	Barclays Euro	4.23	3	3	0.67	25	1	2									
26	T	nva: market be open	N V A	markets are open	4.23	3	3	1	26	1	2									
27	T	nnan: investment grade corporate bond	N N A N	Investment Grade corporate bonds	4.23	3	3	1	27	1	4									
28	T	nnn: cash flow generation	N N N	cash flow generation	4.23	3	3	1	28	1	3									
30	T	npan: share of short term	N P A N	shares of short term	4.05	2	2	1	30	1	3									
31	T	aaan: standard variable net asset	A A A N	standard variable net asset	4.05	2	2	1	31	1	4									
32	T	nnnn: medium term performance trend	N N N N	medium term performance trend	4.05	2	2	1	32	1	4									
33	T	an: low indebtedness	A N	low indebtedness	4.05	2	2	1	33	1	2									
34	T	an: standard mmf	A N	standard MMF	4.05	2	2	1	34	1	2									
35	T	nnn: money market instrument	N N N	money market instruments	4.05	2	2	1	35	1	3									
36	T	nnn: interest rate swap	N N N	Interest Rate Swaps	4.05	2	2	1	36	1	3									
37	T	nan: msci ac world	N A N	MSCI AC World	4.05	2	2	1	37	1	3									
38	T	npn: limit of regulation	N P N	limits of the Regulation	4.05	2	2	1	38	1	2									
39	T	npnnn: category of money market fund	N P N N N	category of money market funds	4.05	2	2	1	39	1	4									
41	T	nnn: food supply chain	N N N	food supply chain	4.05	2	2	1	41	1	3									
42	T	an: russian company	A N	Russian companies	4.05	2	2	1	42	1	2									
43	T	an: bnp pgovernance	A N	BNP PGovernance	4.05	2	2	1	43	1	2									
44	T	ann: recommended investment horizon	A N N	recommended investment horizon	4.05	2	2	1	44	1	3									
45	T	nnn: moscow stock exchange	N N N	Moscow stock exchanges	4.05	2	2	1	45	1	3									
46	T	aan: weighted average maturity	A A N	Weighted Average Maturity	4.05	2	2	1	46	1	3									
47	T	nn: esg score	N N	ESG score	4.05	2	2	1	47	1	2									
48	T	a: low-risk	A	low-risk	4.05	2	2	1	48	1	1									
49	T	nnn: cash index eonia	N N N	Cash Index EONIA	4.05	2	2	1	49	1	3									
50	T	npncn: degree of liquidity and diversification	N P N C N	degree of liquidity and diversification	4.05	2	2	1	50	1	3									
51	T	an: structured debt	A N	structured debt	4.05	2	2	1	51	1	2									
52	T	ann: short term mmf	A N N	short term MMF	4.05	2	2	1	52	1	3									
53	T	nnn: ice bofaml euro	N N N	ICE BofAML Euro	4.05	2	2	1	53	1	3									
54	T	nn: performance research	N N	performance research	4.05	2	2	1	54	1	2									
56	T	aann: non-financial high yield bb-b	A A N N	Non-Financial High Yield BB-B	4.05	2	2	1	56	1	4									
57	T	nn: msci world	N N	MSCI World	4.05	2	2	1	57	1	2									
57	V[s]	nan: msci ac world	N A N	MSCI AC World	4.05	2	2	1	37	1	3	0.99	2	0	0	0	0	1	0	0
58	T	nn: msci russia	N N	MSCI Russia	4.05	2	2	1	58	1	2									
59	T	aan: ancillary liquid asset	A A N	ancillary liquid assets	4.05	2	2	1	59	1	3									
60	T	an: usd-denominated bond	A N	USD-denominated bonds	4.05	2	2	1	60	1	2									
61	T	nnpn: investment horizon of sub-fund	N N P N	investment horizon of the sub-fund	4.05	2	2	1	61	1	3									
62	T	nn: msci europe	N N	MSCI Europe	4.05	2	2	1	62	1	2									
63	T	anpn: high degree of liquidity	A N P N	high degree of liquidity	4.05	2	2	1	63	1	3									
64	T	an: monthly basis	A N	monthly basis	4.05	2	2	1	64	1	2									
65	T	an: relative valuation	A N	relative valuation	4.05	2	2	1	65	1	2									
66	T	aannn: variable net asset value mmf	A A N N N	variable net asset value MMF	4.05	2	2	1	66	1	4									
67	T	nn: currency exposure	N N	currency exposure	4.05	2	2	1	67	1	2									
68	T	nnpn: interest rate of fund	N N P N	interest rate of the Fund	4.05	2	2	1	68	1	3									
69	T	anpn: diversified portfolio of eur	A N P N	diversified portfolio of EUR	4.05	2	2	1	69	1	3									
70	T	npnn: deposit with credit institution	N P N N	deposits with credit institutions	4.05	2	2	1	70	1	3									
71	T	nn: asset class	N N	asset classes	4.05	2	2	0.5	71	1	2									
72	T	npan: assessment of critical factor	N P A N	assessment of critical factors	3.75	1	1	1	72	1	3									
73	T	an: political news-flow	A N	political news-flow	3.75	1	1	1	73	1	2									
74	T	an: global instability	A N	global instabilities	3.75	1	1	1	74	1	2									
75	T	nn: purchase date	N N	purchase date	3.75	1	1	1	75	1	2									
76	T	ann: severe fx devaluation	A N N	severe FX devaluations	3.75	1	1	1	76	1	3									
77	T	nnn: ftse epra nareit	N N N	FTSE EPRA NAREIT	3.75	1	1	1	77	1	3									
78	T	aan: irrational speculative attack	A A N	irrational speculative attacks	3.75	1	1	1	78	1	3									
80	T	an: financial structure	A N	financial structure	3.41	5	5	0.6	80	1	2									
81	T	an: daily basis	A N	daily basis	3.4	30	30	1	81	1	2									
83	T	r: systematically	R	systematically	3.23	20	20	1	83	1	1									
84	T	an: foreign investor	A N	foreign investors	3.13	6	6	1	84	1	2									
87	T	an: european company	A N	European companies	2.99	4	4	1	87	1	2									
89	T	an: corporate bond	A N	corporate bonds	2.86	6	6	0.17	89	1	2									
90	T	nnn: money market rate	N N N	money market rates	2.85	2	2	1	90	1	3									
93	T	r: actively	R	actively	2.71	30	30	1	93	1	1									
96	T	a: russell	A	Russell	2.57	3	3	0.33	96	1	1									
100	T	an: social responsibility	A N	social responsibility	2.28	2	2	1	100	1	2									
102	T	a: aggregate	A	Aggregate	2.19	3	3	1	102	1	1									
103	T	a: inside	A	inside	2.17	1	1	1	103	1	1									
108	T	n: portfolio	N	portfolio	2.07	13	13	0.15	108	1	1									
109	T	r: alongside	R	Alongside	2.04	1	1	1	109	1	1									
112	T	n: security	N	securities	1.94	27	27	0.96	112	1	1									
114	T	r: chiefly	R	chiefly	1.85	1	1	1	114	1	1									
118	T	n: income	N	Income	1.67	21	21	0.9	118	1	1									
120	T	n: calculation	N	calculation	1.61	2	2	1	120	1	1									
122	T	an: european parliament	A N	European Parliament	1.59	2	2	1	122	1	2									
123	T	a: consistent	A	consistent	1.57	2	2	1	123	1	1									
125	T	n: momentum	N	momentum	1.54	2	2	1	125	1	1									
126	T	n: stock	N	Stock	1.52	10	10	0.6	126	1	1									
128	T	n: peer	N	peers	1.47	2	2	1	128	1	1									
129	T	n: constraint	N	constraints	1.44	1	1	1	129	1	1									
131	T	n: potential	N	potential	1.39	5	5	0.8	131	1	1									
134	T	r: primarily	R	primarily	1.31	1	1	1	134	1	1									
135	T	n: reference	N	reference	1.28	3	3	0.67	135	1	1									
136	T	n: equity	N	equities	1.26	2	2	0.5	136	1	1									
137	T	r: completely	R	completely	1.22	4	4	1	137	1	1									
138	T	n: quality	N	quality	1.16	6	6	0.83	138	1	1									
139	T	r: closer	R	closer	1.07	1	1	1	139	1	1									
141	T	n: return	N	return	1.02	6	6	0.33	141	1	1									
142	T	n: purpose	N	purpose	1.01	2	2	1	142	1	1									
145	T	n: capital	N	capital	0.93	3	3	0.67	145	1	1									
146	T	n: impact	N	impact	0.92	2	2	1	146	1	1									
147	T	a: high	A	High	0.91	5	5	0.2	147	1	1									
148	T	n: addition	N	addition	0.88	2	2	1	148	1	1									
149	T	n: june	N	June	0.87	2	2	1	149	1	1									
150	T	n: japan	N	Japan	0.84	2	2	1	150	1	1									
151	T	n: consideration	N	consideration	0.82	1	1	1	151	1	1									
152	T	r: directly	R	directly	0.78	1	1	1	152	1	1									
154	T	n: unit	N	units	0.66	2	2	1	154	1	1									
155	T	n: order	N	order	0.65	3	3	1	155	1	1									
156	T	n: country	N	country	0.65	7	7	1	156	1	1									
157	T	n: product	N	product	0.62	2	2	1	157	1	1									
158	T	n: sector	N	sectors	0.61	2	2	0.5	158	1	1									
159	T	n: circumstance	N	circumstances	0.61	1	1	1	159	1	1									
161	T	n: practice	N	practices	0.55	1	1	1	161	1	1									
162	T	n: line	N	line	0.44	2	2	1	162	1	1									
163	T	n: process	N	process	0.38	1	1	1	163	1	1									
164	T	n: profit	N	profits	0.35	1	1	1	164	1	1									
166	T	n: opportunity	N	Opportunities	0.34	1	1	1	166	1	1									
167	T	n: council	N	Council	0.29	2	2	1	167	1	1									
168	T	n: price	N	prices	0.24	1	1	1	168	1	1									
