#	type	key	pattern	pilot	spec	freq	dFreq	ind
1	T	n: sub-fund	N	sub-fund	5,24	462	108	0,53
2	T	ann: efficient portfolio management	A N N	efficient portfolio management	4,99	129	91	0,83
3	T	n: ucits	N	UCITS	4,94	117	105	0,98
4	T	n: ucis	N	UCIs	4,93	114	102	0,98
5	T	nn: investment objective	N N	Investment objective	4,93	113	108	0,98
6	T	npn: investment of sub-fund	N P N	investments of the sub-fund	4,91	108	108	1,00
7	T	nnn: money market instrument	N N N	money market instruments	4,90	106	103	0,99
8	T	aaan: core financial derivative instrument	A A A N	Core financial derivative instruments	4,84	92	92	1,00
9	T	nn: debt security	N N	debt securities	4,83	90	69	0,27
9	V[s]	nnpn: debt security of kind	N N P N	debt securities of any kind	4,58	51	51	1,00
9	V[s]	ann: floating-rate debt security	A N N	floating-rate debt securities	2,88	2	1	0,50
9	V[s]	ann: structured debt security	A N N	Structured Debt Securities	3,48	4	4	1,00
9	V[s]	nnn: treasury debt security	N N N	Treasury debt securities	3,35	3	2	1,00
10	T	an: transferable security	A N	transferable securities	4,76	77	74	0,99
11	T	aan: financial derivative instrument	A A N	financial derivative instruments	4,64	117	100	0,16
12	T	nn: investment universe	N N	investment universe	4,64	58	37	0,22
12	V[s]	nnpn: investment universe of sub-fund	N N P N	investment universe of the sub-fund	4,11	17	17	1,00
12	V[s]	nnn: reference investment universe	N N N	reference investment universe	4,11	17	17	1,00
13	T	nnn: equity equivalent security	N N N	equity equivalent securities	4,61	54	53	1,00
14	T	an: registered office	A N	registered offices	4,59	52	49	1,00
15	T	nnpn: debt security of kind	N N P N	debt securities of any kind	4,58	51	51	1,00
16	T	nn: repurchase transaction	N N	Repurchase transactions	4,56	49	23	0,94
17	T	nn: investment grade	N N	Investment Grade	4,54	46	30	0,28
17	V[s]	nnn: investment grade bond	N N N	Investment Grade Bonds	3,83	9	7	0,89
18	T	nn: asset class	N N	asset classes	4,54	46	16	0,63
18	V[s]	nnn: asset class mix	N N N	asset class mix	3,48	4	3	1,00
18	V[s]	nnn: asset class minimum	N N N	Assets Classes Minimum	3,35	3	3	1,00
18	V[s]	nnn: asset class weighting	N N N	asset class weightings	3,35	3	3	1,00
19	T	n: hedging	N	hedging	4,50	42	23	0,40
20	T	an: convertible bond	A N	convertible bonds	4,39	33	19	0,64
20	V[s]	aan: contingent convertible bond	A A N	contingent convertible bonds	3,18	2	2	1,00
21	T	an: additional detail	A N	Additional details	4,29	26	25	1,00
22	T	an: structured debt	A N	structured debt	4,27	25	22	0,20
22	V[s]	aan: synthetic structured debt	A A N	Synthetic structured debt	3,35	3	3	1,00
23	T	nn: investment purpose	N N	investment purposes	4,24	23	23	0,96
24	T	ann: short term capital	A N N	short term capital	4,24	23	23	1,00
25	T	npn: liquidity of sub-fund	N P N	liquidity of the sub-fund	4,24	23	23	1,00
26	T	npn: composition of portfolio	N P N	composition of the portfolio	4,24	23	23	1,00
27	T	nnpn: portfolio management with aim	N N P N	portfolio management with the aim	4,24	23	23	1,00
28	T	npan: objective of efficient management	N P A N	objective of an efficient management	4,22	22	22	1,00
29	T	nnpn: management purpose with objective	N N P N	management purposes with the objective	4,22	22	22	1,00
30	T	anpnn: efficient management of cash flow	A N P N N	efficient management of cash flows	4,22	22	22	1,00
31	T	n: website	N	website	4,22	22	21	0,95
32	T	ncan: flow and good coverage	N C A N	flows and better coverage	4,22	22	22	1,00
33	T	npn: hedging of risk	N P N	hedging of those risks	4,22	22	3	0,64
34	T	anpn: good coverage of market	A N P N	better coverage of markets	4,22	22	22	1,00
35	T	annn: efficient portfolio management purpose	A N N N	efficient portfolio management purposes	4,22	22	22	1,00
36	T	an: distressed security	A N	distressed securities	4,20	21	11	0,48
37	T	npan: universe of aforesaid index	N P A N	universe of the aforesaid index	4,15	19	19	1,00
38	T	a: directional	A	directional	4,15	19	8	0,21
39	T	nnpn: business day of month	N N P N	business day of the month	4,13	18	17	1,00
40	T	npn: expectation of change	N P N	expectations of changes	4,13	18	3	0,56
41	T	nn: investment limit	N N	investments limits	4,11	17	16	0,94
42	T	nnn: reference investment universe	N N N	reference investment universe	4,11	17	17	1,00
43	T	nnpn: investment universe of sub-fund	N N P N	investment universe of the sub-fund	4,11	17	17	1,00
44	T	npan: respect of above investment	N P A N	respect of the above investments	4,08	16	16	1,00
45	T	ann: high yield bond	A N N	High Yield bonds	4,05	15	13	1,00
46	T	n: p-notes	N	P-Notes	4,05	15	15	1,00
47	T	nnn: credit default swap	N N N	Credit Default Swap	4,02	14	6	0,50
48	T	nn: risk budget	N N	risk budget	3,99	13	6	0,54
49	T	anpn: good interest of shareholder	A N P N	best interest of the shareholders	3,95	12	12	1,00
50	T	npn: control of company	N P N	control of the company	3,95	12	12	1,00
51	T	nn: factor style	N N	factor styles	3,95	12	12	0,92
52	T	an: active exposure	A N	active exposures	3,95	12	12	1,00
53	T	nn: rating criterion	N N	rating criteria	3,95	12	12	1,00
54	T	npnn: result of restructuring event	N P N N	result of a restructuring event	3,95	12	12	1,00
55	T	an: thematic sub-fund	A N	thematic sub-fund	3,92	11	10	1,00
56	T	nan: case distressed security	N A N	case distressed securities	3,92	11	11	1,00
57	T	anpnn: individual stock of investment universe	A N P N N	individual stocks of the investment universe	3,87	10	10	1,00
58	T	nnan: investment grade structured debt	N N A N	Investment Grade structured debt	3,87	10	10	1,00
59	T	an: good equity	A N	best equities	3,87	10	10	1,00
60	T	nn: factor criterion	N N	factor criterions	3,87	10	10	0,10
60	V[s]	nnn: equity factor criterion	N N N	equity factor criterions	3,83	9	9	1,00
61	T	nva: allocation be discretionary	N V A	allocation is discretionary	3,87	10	4	1,00
62	T	aan: final average score	A A N	final average score	3,87	10	10	1,00
63	T	nn: market volatility	N N	market volatility	3,87	10	4	1,00
64	T	n: fixed-income	N	fixed-income	3,87	10	10	0,30
65	T	ann: quantitative investment process	A N N	quantitative investment process	3,87	10	10	1,00
66	T	nn: esg criterion	N N	ESG criteria	3,87	10	4	0,70
66	V[s]	ann: specific esg criterion	A N N	specific ESG criteria	3,35	3	3	1,00
67	T	an: high leverage	A N	higher leverage	3,87	10	3	0,60
68	T	an: systematic approach	A N	systematic approach	3,83	9	9	1,00
69	T	n: arbitrage	N	arbitrage	3,83	9	4	0,22
70	T	nnn: equity factor criterion	N N N	equity factor criterions	3,83	9	9	1,00
71	T	nnn: investment grade bond	N N N	Investment Grade Bonds	3,83	9	7	0,89
72	T	nnn: interest rate swap	N N N	Interest Rate Swaps	3,83	9	3	0,67
73	T	nn: barclays euro	N N	Barclays Euro	3,83	9	9	0,78
73	V[s]	nnn: barclays euro aggregate	N N N	Barclays Euro Aggregate	3,18	2	2	0,50
74	T	nn: esg score	N N	ESG score	3,78	8	4	0,50
74	V[s]	ann: quantitative esg score	A N N	quantitative ESG score	3,48	4	4	1,00
75	T	nn: investment policy	N N	Investment policy	3,78	120	108	0,92
75	V[s]	ann: tainable investment policy	A N N	tainable Investment Policy	3,18	2	2	1,00
76	T	ncan: esg and low carbon	N C A N	ESG and low carbon	3,78	8	8	1,00
77	T	an: green bond	A N	green bonds	3,78	8	2	0,63
77	V[s]	aan: global green bond	A A N	global green bonds	3,35	3	1	0,33
78	T	nn: performance objective	N N	performance objective	3,78	8	7	0,50
78	V[s]	ann: absolute performance objective	A N N	absolute performance objective	3,35	3	2	1,00
79	T	nn: sub-fund asset	N N	sub-fund assets	3,78	8	4	1,00
80	T	nnpn: market expectation of change	N N P N	market expectations of changes	3,78	8	3	1,00
81	T	nn: allocation strategy	N N	allocation strategy	3,78	8	6	0,13
81	V[s]	ann: diversified allocation strategy	A N N	diversified allocation strategy	3,18	2	2	0,50
82	T	a: developed	A	developed	3,78	8	7	0,88
83	T	n: low-volatility	N	low-volatility	3,75	15	10	0,93
84	T	an: private corporation	A N	private corporations	3,72	7	7	1,00
85	T	nn: debt restructuring	N N	debt restructuring	3,72	7	7	1,00
86	T	ncnn: fraud and tax evasion	N C N N	fraud and tax evasion	3,72	7	7	1,00
87	T	nnn: bnp pariba fund	N N N	BNP Paribas Funds	3,72	7	7	0,86
88	T	nnn: iboxx eur corporate	N N N	iBoxx EUR Corporates	3,72	7	7	1,00
89	T	nnnn: investment grade fixed-income bond	N N N N	investment grade fixed-income bonds	3,72	7	7	1,00
90	T	naan: corporate overall total return	N A A N	Corporates Overall Total Return	3,72	7	7	1,00
91	T	npn: close of business	N P N	close of business	3,72	7	7	1,00
92	T	an: similar security	A N	similar securities	3,72	7	7	1,00
93	T	nn: strategy indices	N N	strategy indices	3,72	7	6	0,86
94	T	nn: asset allocation	N N	asset allocation	3,72	7	6	0,29
95	T	an: aggregate bond	A N	aggregate bonds	3,72	7	7	1,00
96	T	a: notional	A	notional	3,72	7	3	0,43
97	T	an: non-cooperative country	A N	non-cooperative countries	3,72	7	7	1,00
98	T	npan: result of corporate action	N P A N	result of corporate actions	3,72	7	7	1,00
99	T	an: directional position	A N	directional positions	3,72	7	6	0,29
100	T	n: etfs	N	ETFs	3,72	7	4	1,00
101	T	n: eurozone	N	Eurozone	3,70	20	14	0,60
102	T	annn: short term interest rate	A N N N	short term interest rate	3,65	6	2	0,17
103	T	nn: repurchase agreement	N N	repurchase agreements	3,65	6	2	0,33
103	V[s]	ann: reverse repurchase agreement	A N N	reverse repurchase agreements	3,18	2	2	1,00
104	T	npn: range of strategy	N P N	range of strategies	3,65	6	3	0,50
104	V[s]	anpn: wide range of strategy	A N P N	widest range of strategies	3,35	3	3	1,00
105	T	nva: sub-fund be variable	N V A	sub-fund are variable	3,65	6	3	1,00
106	T	an: european equity	A N	European equities	3,65	6	6	0,83
107	T	nn: income security	N N	income securities	3,65	6	5	0,83
108	T	ncan: environment and sustainable development	N C A N	environment and sustainable development	3,65	6	6	1,00
109	T	nnn: money market fund	N N N	money market fund	3,65	6	6	0,50
110	T	an: sustainable food	A N	sustainable food	3,65	6	5	0,50
111	T	npan: beginning of financial year	N P A N	beginning of each financial year	3,65	6	6	1,00
112	T	an: sustainable world	A N	sustainable world	3,65	6	6	1,00
113	T	nn: risk management	N N	risk management	3,65	6	3	0,50
114	T	nn: earnings growth	N N	earnings growth	3,65	6	5	0,83
115	T	npn: term of risk	N P N	terms of risks	3,65	6	5	1,00
116	T	nn: equity exposure	N N	equity exposure	3,65	6	6	1,00
117	T	ncnn: exchange and credit market	N C N N	exchange and credit markets	3,65	6	1	1,00
118	T	ann: real estate company	A N N	real estate companies	3,65	6	3	0,83
119	T	nn: transaction core	N N	Transactions Core	3,65	6	6	1,00
120	T	n: cmbs	N	CMBS	3,65	6	4	0,83
121	T	nnn: interest rate sensitivity	N N N	interest rate sensitivity	3,57	5	5	0,60
122	T	an: ancillary asset	A N	Ancillary assets	3,57	5	5	1,00
122	V[s]	aan: ancillary liquid asset	A A N	ancillary liquid assets	3,18	2	2	1,00
123	T	nn: fund universe	N N	fund universe	3,57	5	5	0,80
123	V[s]	npnn: universe of sub fund	N P N N	universe of this sub fund	3,48	4	4	1,00
124	T	nnn: interest rate option	N N N	interest rate options	3,57	5	2	0,20
125	T	n: clos	N	CLOs	3,57	5	5	1,00
126	T	ann: short-named bnp pariba	A N N	short-named BNP Paribas	3,57	5	5	0,20
127	T	an: regulated market	A N	Regulated Markets	3,57	5	5	1,00
128	T	nnn: equity index future	N N N	Equity index futures	3,57	5	4	0,60
129	T	nnnn: risk budget type approach	N N N N	risk budget type approach	3,57	5	4	1,00
130	T	anpn: actual creditworthiness of basket	A N P N	actual creditworthiness of baskets	3,57	5	3	1,00
131	T	nn: market movement	N N	market movements	3,57	5	4	0,60
131	V[s]	ann: downside market movement	A N N	downside market movements	3,18	2	1	0,50
132	T	anpn: wide set of strategy	A N P N	wide set of strategies	3,57	5	3	1,00
133	T	a: fixed-rate	A	fixed-rate	3,57	5	5	0,80
134	T	npncn: creditworthiness of basket or indices	N P N C N	creditworthiness of baskets or indices	3,57	5	3	1,00
135	T	n: euros	N	euros	3,57	5	5	1,00
136	T	anpn: limited number of company	A N P N	limited number of companies	3,57	5	5	1,00
137	T	nn: equity indices	N N	equity indices	3,57	5	1	1,00
138	T	nn: bond index	N N	Bond Index	3,57	5	5	0,20
139	T	nn: income universe	N N	income universe	3,57	5	3	0,60
140	T	npnnn: basis of risk budget type	N P N N N	basis of a risk budget type	3,57	5	4	1,00
141	T	npn: description of asset	N P N	Description of the assets	3,57	5	5	1,00
142	T	anan: high yield corporate bond	A N A N	high yield corporate bonds	3,57	5	5	1,00
143	T	nn: market fluctuation	N N	market fluctuations	3,57	5	4	1,00
144	T	nn: volatility swap	N N	volatility swaps	3,57	5	4	0,40
145	T	ncnn: equity or equity equivalent	N C N N	equities or equity equivalent	3,57	5	5	1,00
146	T	ncnn: indices and credit default	N C N N	Indices and Credit Default	3,57	5	5	1,00
147	T	npan: range of directional position	N P A N	range of directional positions	3,57	5	5	1,00
148	T	an: financial derivative	A N	financial derivatives	3,57	5	1	0,60
149	T	nnn: cash flow generation	N N N	cash flow generation	3,57	5	5	1,00
150	T	nnn: interbank bond market	N N N	Interbank Bond market	3,57	5	5	0,20
151	T	nnan: default swap tradable indices	N N A N	Default Swap Tradable Indices	3,57	5	5	1,00
152	T	aan: commercial mortgage-backed security	A A N	Commercial Mortgage-Backed Security	3,48	4	2	0,75
153	T	nn: credit risk	N N	credit risk	3,48	4	3	0,50
154	T	an: 3-month period	A N	3-month period	3,48	4	2	1,00
155	T	nn: inflation swap	N N	Inflation Swaps	3,48	4	4	0,75
156	T	an: medium score	A N	medium score	3,48	4	4	1,00
157	T	nn: energy transition	N N	energy transition	3,48	4	1	0,75
158	T	nn: observation date	N N	Observation Date	3,48	4	1	1,00
159	T	nnnn: medium term performance trend	N N N N	medium term performance trend	3,48	4	4	1,00
160	T	ann: small cap equity	A N N	small cap equities	3,48	4	4	0,25
161	T	ann: foreign exchange instrument	A N N	Foreign exchange instruments	3,48	4	4	1,00
162	T	an: poor score	A N	poor score	3,48	4	4	1,00
163	T	nn: currency risk	N N	currency risk	3,48	4	4	1,00
164	T	an: relative valuation	A N	relative valuation	3,48	4	4	1,00
165	T	naan: instrument financial derivative instrument	N A A N	instruments Financial derivative instruments	3,48	4	4	1,00
166	T	ann: neutral recommendation issuer	A N N	Neutral recommendation Issuers	3,48	4	4	1,00
167	T	ann: total return index	A N N	Total Return Index	3,48	8	7	1,00
168	T	ann: normal market condition	A N N	normal market conditions	3,48	4	4	1,00
169	T	an: single instrument	A N	single instrument	3,48	4	4	1,00
170	T	nn: basis point	N N	basis points	3,48	4	3	0,75
171	T	nn: esg indicator	N N	ESG indicators	3,48	4	4	1,00
172	T	nnnnn: credit default swap index tranch	N N N N N	Credit Default Swap index tranches	3,48	4	4	1,00
173	T	an: low indebtedness	A N	low indebtedness	3,48	4	4	1,00
174	T	ann: domestic government bond	A N N	Domestic government bonds	3,48	4	4	1,00
175	T	nn: market direction	N N	market direction	3,48	4	4	1,00
175	V[s]	npnn: direction of mortgage market	N P N N	direction of mortgage markets	3,18	2	2	1,00
176	T	npnnn: centre of bnp pariba asset	N P N N N	Centre of BNP PARIBAS ASSET	3,48	4	4	1,00
177	T	nnpn: sustainability centre of bnp	N N P N	Sustainability Centre of BNP	3,48	4	4	1,00
178	T	nn: trading cost	N N	trading costs	3,48	4	4	1,00
179	T	nnpn: country member of eea	N N P N	country member of the EEA	3,48	4	4	1,00
180	T	npn: range of arbitrage	N P N	range of arbitrage	3,48	4	4	0,75
181	T	an: qualitative element	A N	qualitative elements	3,48	4	4	1,00
182	T	aan: key sustainable issue	A A N	key sustainable issues	3,48	4	4	1,00
183	T	nn: market indices	N N	market indices	3,48	4	4	1,00
184	T	n: sub--assets	N	sub--assets	3,48	4	4	1,00
185	T	n: non-agency	N	Non-agency	3,48	4	4	0,25
186	T	an: key step	A N	key steps	3,48	4	4	1,00
187	T	an: directional strategy	A N	directional strategies	3,48	4	4	1,00
188	T	an: negative recommendation	A N	Negative recommendation	3,48	4	4	1,00
189	T	an: initial score	A N	initial score	3,48	4	4	1,00
190	T	nn: currency forward	N N	Currency Forwards	3,48	4	4	0,75
191	T	naan: euro aggregate corporate index	N A A N	Euro Aggregate Corporate index	3,48	4	4	1,00
192	T	nnn: asset class mix	N N N	asset class mix	3,48	4	3	1,00
193	T	nn: equity security	N N	Equity securities	3,48	4	4	0,75
193	V[s]	nnn: equity equivalent security	N N N	equity equivalent securities	4,61	54	53	1,00
194	T	nn: oecd country	N N	OECD countries	3,48	8	6	1,00
195	T	an: outright position-taking	A N	outright position-taking	3,48	4	4	1,00
196	T	nnn: interest rate future	N N N	Interest Rate Futures	3,48	4	4	0,75
197	T	ann: bnp pariba asset	A N N	BNP PARIBAS ASSET	3,48	8	4	0,88
198	T	nn: arbitrage strategy	N N	arbitrage strategies	3,48	4	1	0,75
199	T	ncan: commodity or real estate	N C A N	commodities or real estate	3,48	4	4	1,00
200	T	ann: quantitative esg score	A N N	quantitative ESG score	3,48	4	4	1,00
201	T	ann: structured debt security	A N N	Structured Debt Securities	3,48	4	4	1,00
202	T	ncnpn: risk or set of risk	N C N P N	risks or sets of risks	3,48	4	4	1,00
203	T	nan: tba mortgage-backed security	N A N	TBA Mortgage-Backed Security	3,48	4	3	0,25
204	T	nnnn: china interbank bond market	N N N N	China Interbank Bond market	3,48	4	4	1,00
205	T	nn: cash instrument	N N	Cash instruments	3,48	4	3	0,75
206	T	npnn: universe of sub fund	N P N N	universe of this sub fund	3,48	4	4	1,00
207	T	ann: positive recommendation issuer	A N N	Positive recommendation Issuers	3,48	4	4	1,00
208	T	nnnn: bnp pariba asset management	N N N N	BNP PARIBAS ASSET MANAGEMENT	3,48	4	4	1,00
209	T	an: targeted asset	A N	targeted assets	3,48	4	4	0,25
210	T	anpn: good interest of investor	A N P N	best interests of investors	3,48	4	4	1,00
211	T	n: cdos	N	CDOs	3,48	4	4	1,00
212	T	ann: main asset category	A N N	Main assets categories	3,48	4	4	1,00
213	T	nn: sub-fund universe	N N	sub-fund universe	3,42	7	6	1,00
214	T	a: best-in-class	A	Best-in-Class	3,42	7	3	0,57
215	T	a: annualised	A	annualised	3,42	7	3	0,43
216	T	n: appendix	N	Appendix	3,39	121	99	0,99
217	T	ann: real estate security	A N N	Real Estate Securities	3,35	3	2	0,67
218	T	nn: sea container	N N	sea containers	3,35	3	3	1,00
219	T	n: ndfs	N	NDFs	3,35	3	3	1,00
220	T	nnn: asset class weighting	N N N	asset class weightings	3,35	3	3	1,00
221	T	n: baa3	N	Baa3	3,35	3	3	1,00
222	T	nn: equity bucket	N N	Equity bucket	3,35	3	3	1,00
223	T	acan: environmental and social responsibility	A C A N	environmental and social responsibility	3,35	3	3	1,00
224	T	npnn: volatility of sub fund	N P N N	volatility of the sub fund	3,35	3	3	1,00
225	T	nn: ginnie mae	N N	Ginnie Mae	3,35	3	3	1,00
226	T	anpn: wide range of strategy	A N P N	widest range of strategies	3,35	3	3	1,00
227	T	npan: weighting of different strategy	N P A N	weighting of the different strategies	3,35	3	3	1,00
228	T	npn: volatility of bond	N P N	volatility of bonds	3,35	3	3	1,00
229	T	a: oecd	A	OECD	3,35	3	3	0,67
230	T	an: benchmark register	A N	Benchmark Register	3,35	3	3	1,00
231	T	ann: relative value strategy	A N N	relative value strategies	3,35	3	3	1,00
232	T	npn: sustainability of dividend	N P N	sustainability of the dividends	3,35	3	3	0,67
233	T	an: thematic approach	A N	thematic approach	3,35	3	3	1,00
234	T	nn: time horizon	N N	time horizons	3,35	3	3	1,00
235	T	ann: real estate sector	A N N	real estate sector	3,35	3	3	1,00
236	T	annnn: federal home loan mortgage corporation	A N N N N	Federal Home Loan Mortgage Corporation	3,35	3	3	1,00
237	T	npnn: interest of sub-fund holder	N P N N	interests of the sub-fund holders	3,35	3	3	1,00
238	T	nn: income bucket	N N	Income bucket	3,35	3	3	1,00
239	T	an: timely manner	A N	timeliest manner	3,35	3	3	1,00
240	T	ann: specific esg criterion	A N N	specific ESG criteria	3,35	3	3	1,00
241	T	ncnpn: bond or share of issuer	N C N P N	bonds or shares of issuers	3,35	3	3	1,00
242	T	an: best-in-class approach	A N	Best-in-Class approach	3,35	3	3	1,00
243	T	an: large contribution	A N	larger contribution	3,35	3	2	1,00
244	T	ann: mortgage-backed security derivative	A N N	Mortgage-Backed Security derivatives	3,35	3	3	0,33
245	T	nnpn: investment approach of sub-fund	N N P N	investment approach of the sub-fund	3,35	3	3	1,00
246	T	an: minimum exposure	A N	minimum exposure	3,35	3	3	1,00
247	T	an: notional methodology	A N	notional methodology	3,35	3	3	1,00
248	T	ncnn: investment and capital appreciation	N C N N	investments and capital appreciation	3,35	3	3	1,00
249	T	an: relative basis	A N	relative basis	3,35	3	3	1,00
250	T	ncan: environment and social climate	N C A N	environment and social climate	3,35	3	3	1,00
251	T	nn: asset minimum	N N	Assets Minimum	3,35	3	3	1,00
251	V[s]	nnn: asset class minimum	N N N	Assets Classes Minimum	3,35	3	3	1,00
252	T	npn: volatility of portfolio	N P N	volatility of the portfolio	3,35	3	2	0,67
253	T	nn: income restructuring	N N	income restructurings	3,35	3	3	1,00
254	T	npnn: anticipation of investment manager	N P N N	anticipations of the Investment Manager	3,35	3	3	1,00
255	T	nn: esg company	N N	ESG companies	3,35	3	3	1,00
256	T	acan: sustainable & responsible investment	A C A N	Sustainable & Responsible Investments	3,35	3	3	1,00
257	T	nn: strategy index	N N	strategy index	3,35	3	2	1,00
258	T	npnnn: volatility of interest rate swap	N P N N N	volatility of Interest Rate Swaps	3,35	3	3	1,00
259	T	npn: asset of sub-fund	N P N	assets of the sub-fund	3,35	3	2	1,00
259	V[s]	nn: sub-fund asset	N N	sub-fund assets	3,78	8	4	1,00
260	T	ann: absolute performance objective	A N N	absolute performance objective	3,35	3	2	1,00
261	T	acan: positive and sustainable impact	A C A N	positive and sustainable impacts	3,35	3	3	1,00
262	T	nn: agency mortgage	N N	Agency Mortgage	3,35	3	3	1,00
263	T	ncnn: instrument and money market	N C N N	instruments and money market	3,35	3	3	1,00
264	T	nn: option purchase	N N	options purchases	3,35	3	1	0,33
265	T	nn: freddie mac	N N	Freddie Mac	3,35	3	3	1,00
266	T	ncan: forward and non-deliverable forward	N C A N	Forwards and Non-Deliverable Forwards	3,35	3	3	1,00
267	T	an: structured security	A N	structured securities	3,35	3	3	1,00
268	T	ncan: equity or equivalent security	N C A N	equities or equivalent securities	3,35	3	3	1,00
269	T	nn: equipment lease	N N	equipment leases	3,35	3	3	1,00
270	T	npnn: pricing of inflation risk	N P N N	pricing of inflation risk	3,35	3	3	1,00
271	T	ann: sustainable development criterion	A N N	sustainable development criteria	3,35	3	3	1,00
272	T	n: bondholder	N	bondholders	3,35	3	3	1,00
273	T	nn: cell tower	N N	cell towers	3,35	3	3	1,00
274	T	ann: main derivative instrument	A N N	main derivatives instruments	3,35	3	3	1,00
275	T	aan: junior subordinated instrument	A A N	junior subordinated instruments	3,35	3	3	1,00
276	T	nn: eurozone equity	N N	Eurozone equity	3,35	3	2	0,33
277	T	nnn: treasury debt security	N N N	Treasury debt securities	3,35	3	2	1,00
278	T	npn: event of default	N P N	event of a default	3,35	3	3	1,00
279	T	aan: synthetic structured debt	A A N	Synthetic structured debt	3,35	3	3	1,00
280	T	an: innovative technology	A N	innovative technologies	3,35	3	2	0,67
281	T	ann: enhanced bond strategy	A N N	Enhanced Bond strategy	3,35	3	2	1,00
282	T	acan: environmental and social conduct	A C A N	environmental and social conduct	3,35	3	3	1,00
283	T	npan: indices of similar borrower	N P A N	indices of similar borrowers	3,35	3	3	1,00
284	T	anpn: actual creditworthiness of borrower	A N P N	actual creditworthiness of borrowers	3,35	3	3	1,00
285	T	npnn: evolution of market condition	N P N N	evolution of market conditions	3,35	3	3	1,00
286	T	an: daily var	A N	daily VaR	3,35	3	3	1,00
287	T	nnn: risk management process	N N N	risk management process	3,35	3	3	1,00
288	T	an: average maturity	A N	average maturity	3,35	3	3	1,00
289	T	ncan: loan and commercial receivables	N C A N	loans and commercial receivables	3,35	3	3	1,00
290	T	npn: volatility with target	N P N	volatility with a target	3,35	3	3	1,00
291	T	anan: subordinated tranch commercial mortgage	A N A N	subordinated tranches Commercial Mortgage	3,35	3	3	1,00
292	T	ann: real estate property	A N N	real estate properties	3,35	3	3	1,00
293	T	nn: holding period	N N	holding period	3,35	3	3	1,00
294	T	nann: security collateralized mortgage obligation	N A N N	Securities Collateralized mortgage obligations	3,35	3	3	1,00
295	T	npn: time of purchase	N P N	time of purchase	3,35	3	3	1,00
296	T	ncan: conduct and corporate governance	N C A N	conduct and corporate governance	3,35	3	3	1,00
297	T	nn: ice bofaml	N N	ICE BofAML	3,35	3	3	0,33
297	V[s]	nnn: ice bofaml bb-b	N N N	ICE BofAML BB-B	3,18	2	2	1,00
298	T	anpnn: essential feature of investment policy	A N P N N	essential feature of the investment policy	3,35	3	3	1,00
299	T	anpn: standard deviation of return	A N P N	standard deviation of returns	3,35	3	3	1,00
300	T	an: voluntary exchange	A N	voluntary exchange	3,35	3	3	1,00
301	T	a: previously-held	A	previously-held	3,35	3	3	1,00
302	T	nn: call option	N N	call options	3,35	3	3	0,33
303	T	annn: dynamic asset allocation strategy	A N N N	dynamic asset allocation strategies	3,35	3	2	1,00
304	T	an: global universe	A N	global universe	3,35	3	3	1,00
305	T	nnn: market price change	N N N	market price changes	3,35	3	3	1,00
306	T	aann: federal national mortgage association	A A N N	Federal National Mortgage Association	3,35	3	3	1,00
307	T	nann: government national mortgage association	N A N N	Government National Mortgage Association	3,35	3	3	1,00
308	T	nn: fannie mae	N N	Fannie Mae	3,35	3	3	1,00
309	T	ann: high leverage level	A N N	higher leverage level	3,35	3	3	1,00
310	T	nnn: leverage risk warning	N N N	Leverage Risk warning	3,35	3	3	1,00
311	T	nn: income sub-fund	N N	income sub-fund	3,35	3	3	1,00
312	T	an: forward-looking statement	A N	forward-looking statement	3,35	3	3	1,00
313	T	a: compliant	A	compliant	3,35	3	3	0,67
314	T	ann: global government bond	A N N	Global Government Bonds	3,35	3	3	1,00
315	T	nnpn: equity tranch of abs	N N P N	Equity tranches of ABS	3,35	3	3	1,00
316	T	ann: risky asset part	A N N	risky asset part	3,35	3	1	0,33
317	T	nn: sub-asset class	N N	sub-asset classes	3,35	3	3	1,00
318	T	n: sub-will	N	sub-will	3,35	3	3	1,00
319	T	aan: global green bond	A A N	global green bonds	3,35	3	1	0,33
320	T	npan: volatility of targeted asset	N P A N	volatility of targeted assets	3,35	3	3	1,00
321	T	nn: commodity indices	N N	commodity indices	3,35	3	1	1,00
322	T	ann: external debt instrument	A N N	external debt instruments	3,35	3	3	1,00
323	T	nnn: asset class minimum	N N N	Assets Classes Minimum	3,35	3	3	1,00
324	T	nn: leverage detail	N N	Leverage details	3,35	3	3	0,67
325	T	ncnn: income or market risk	N C N N	income or market risk	3,35	3	3	1,00
326	T	an: asset-backed security	A N	Asset-Backed Securities	3,35	3	3	1,00
327	T	ann: high market capitalisation	A N N	highest market capitalisation	3,35	3	3	1,00
328	T	npn: life of sub-fund	N P N	life of the sub-fund	3,35	3	3	1,00
329	T	n: cfds	N	CFDs	3,35	3	1	0,33
330	T	ann: minimum investment period	A N N	minimum investment period	3,35	3	2	1,00
331	T	npn: nav of sub-fund	N P N	NAV of the sub-fund	3,35	3	3	0,67
332	T	nn: mezzanine tranch	N N	mezzanine tranches	3,35	3	3	1,00
333	T	an: important income	A N	important income	3,35	3	3	1,00
334	T	a: benvironmental	A	BEnvironmental	3,35	3	3	1,00
335	T	npan: tranch of such issue	N P A N	tranches of such issues	3,35	3	3	1,00
336	T	ann: environmental support service	A N N	Environmental Support Services	3,35	3	3	1,00
337	T	npan: basis of specific esg	N P A N	basis of specific ESG	3,35	3	3	1,00
338	T	a: involuntary	A	involuntary	3,35	3	3	1,00
339	T	an: long position	A N	long positions	3,35	3	2	0,67
340	T	nn: top-down macro	N N	top-down macro	3,35	3	3	1,00
341	T	nnnn: successor institution non-agency mortgage	N N N N	successor institutions Non-agency Mortgage	3,35	3	3	1,00
342	T	n: swaptions	N	Swaptions	3,35	3	3	0,67
343	T	nnn: market bond index	N N N	Market Bond Index	3,35	3	3	1,00
344	T	npn: proceed of restructuring	N P N	proceeds of a restructuring	3,35	3	3	1,00
345	T	ann: junior equity tranche	A N N	junior equity tranche	3,35	3	3	1,00
346	T	annnn: short term interest rate option	A N N N N	short term interest rate options	3,35	3	2	1,00
347	T	nn: income exposure	N N	income exposures	3,35	3	3	1,00
348	T	npnn: range of asset class	N P N N	range of asset classes	3,35	3	3	0,33
349	T	anpn: absolute value of derivative	A N P N	absolute values of the derivatives	3,35	3	3	1,00
350	T	an: hedge duration	A N	hedge duration	3,35	3	3	1,00
351	T	nn: pollution control	N N	Pollution Control	3,35	3	3	1,00
352	T	ann: effective portfolio management	A N N	effective portfolio management	3,35	3	3	1,00
353	T	aan: short-term tactical allocation	A A N	short-term tactical allocation	3,35	3	3	1,00
354	T	nn: investment growth	N N	investment growth	3,35	3	3	1,00
355	T	aan: non-financial high yield	A A N	Non-Financial High Yield	3,35	3	3	0,67
356	T	ncnpn: option or basket of option	N C N P N	Options or baskets of options	3,35	3	3	1,00
357	T	a: floating-rate	A	floating-rate	3,35	6	4	0,67
358	T	an: short position	A N	short positions	3,35	3	2	0,67
359	T	n: small-cap	N	small-cap	3,27	5	2	0,20
360	T	nnpn: reference universe of sub-fund	N N P N	reference universe of the sub-fund	3,27	5	4	1,00
361	T	n: derivative	N	Derivatives	3,20	251	104	0,92
362	T	n: swap	N	Swaps	3,20	46	17	0,17
363	T	ann: annualised volatility target	A N N	annualised volatility target	3,18	2	1	1,00
364	T	nn: otc derivative	N N	OTC derivatives	3,18	2	2	0,50
365	T	ncan: sector and geographic area	N C A N	sectors and geographic areas	3,18	2	2	1,00
366	T	nn: market trend	N N	market trends	3,18	2	2	0,50
367	T	ann: recommended investment horizon	A N N	recommended investment horizon	3,18	2	2	1,00
368	T	an: covered bond	A N	covered bonds	3,18	2	1	1,00
369	T	npn: calculation of wam	N P N	calculation of the WAM	3,18	2	2	1,00
370	T	anan: absolute return thematic equity	A N A N	Absolute Return Thematic Equity	3,18	2	1	1,00
371	T	npn: share of company	N P N	shares of companies	3,18	2	2	1,00
372	T	nn: euro-zone country	N N	euro-zone countries	3,18	2	2	0,50
373	T	nnn: bank business day	N N N	bank business day	3,18	2	1	0,50
374	T	n: outperformance	N	outperformance	3,18	2	1	0,50
375	T	ann: liquid interest rate	A N N	liquid interest rates	3,18	2	1	1,00
376	T	an: regular income	A N	regular income	3,18	2	2	1,00
377	T	npan: limit of structured debt	N P A N	limit of Structured Debt	3,18	2	2	1,00
378	T	nnn: repurchase agreement unit	N N N	repurchase agreements units	3,18	2	2	1,00
379	T	nn: agency mbs	N N	Agency MBS	3,18	2	2	1,00
380	T	nnpn: investment horizon of sub-fund	N N P N	investment horizon of the sub-fund	3,18	2	2	1,00
381	T	an: worldwide company	A N	worldwide companies	3,18	2	2	1,00
382	T	an: structured product	A N	structured product	3,18	2	2	1,00
383	T	npn: exclusion of company	N P N	exclusion of companies	3,18	2	1	1,00
384	T	anpn: high level of liquidity	A N P N	high level of liquidity	3,18	2	2	1,00
385	T	npn: part of portfolio	N P N	part of the portfolio	3,18	2	2	0,50
386	T	a: bnenvironmental	A	BNEnvironmental	3,18	2	2	1,00
387	T	nn: interest---mortgage strip	N N	interest---mortgage strips	3,18	2	2	1,00
388	T	nn: esg practice	N N	ESG practices	3,18	2	1	0,50
389	T	nnnnn: term interest rate option purchase	N N N N N	term interest rates options purchases	3,18	2	1	1,00
390	T	nn: bloomberg barclays	N N	Bloomberg Barclays	3,18	2	1	0,50
391	T	nnn: interest rate derivative	N N N	interest rates derivatives	3,18	2	1	1,00
392	T	npan: portfolio of high yield	N P A N	portfolio of High Yield	3,18	2	2	1,00
393	T	aannn: variable net asset value money	A A N N N	variable net asset value money	3,18	2	2	1,00
394	T	an: geographic limitation	A N	geographic limitation	3,18	2	1	1,00
395	T	nnpn: member state of eurozone	N N P N	member states of the Eurozone	3,18	2	2	1,00
396	T	n: wellness	N	wellness	3,18	2	2	1,00
397	T	nnnnn: asset value money market fund	N N N N N	asset value money market fund	3,18	2	2	1,00
398	T	nn: duration management	N N	duration management	3,18	2	2	1,00
399	T	nn: portfolio risk	N N	portfolio risk	3,18	2	2	1,00
400	T	ncan: research and quantitative analysis	N C A N	research and quantitative analysis	3,18	2	2	1,00
401	T	an: positive return	A N	positive returns	3,18	2	2	1,00
402	T	npan: share of short term	N P A N	shares of short term	3,18	2	2	1,00
403	T	nn: mortgage loan	N N	mortgage loans	3,18	2	2	1,00
404	T	ann: total return swap	A N N	total return swaps	3,18	2	2	1,00
405	T	ncan: market and main equity	N C A N	markets and main equity	3,18	2	1	1,00
406	T	nnn: food supply chain	N N N	food supply chain	3,18	2	1	0,50
407	T	ncnpn: policy and strategy of sub-fund	N C N P N	policy and strategy of the sub-fund	3,18	2	2	1,00
408	T	ncan: yield and non-rated debt	N C A N	Yield and non-rated debt	3,18	2	2	1,00
409	T	nn: forex position	N N	Forex positions	3,18	2	2	0,50
410	T	npnn: direction of mortgage market	N P N N	direction of mortgage markets	3,18	2	2	1,00
411	T	ann: convertible bond security	A N N	convertible bonds securities	3,18	2	2	1,00
412	T	aan: ancillary liquid asset	A A N	ancillary liquid assets	3,18	2	2	1,00
413	T	anpnn: broad range of asset class	A N P N N	broad range of asset classes	3,18	2	2	1,00
414	T	nn: distribution share	N N	Distribution shares	3,18	2	2	1,00
415	T	an: human development	A N	human development	3,18	2	1	0,50
416	T	annnn: net asset value money market	A N N N N	net asset value money market	3,18	2	2	1,00
417	T	nnan: pariba fund absolute return	N N A N	Paribas Funds Absolute Return	3,18	2	2	1,00
418	T	annn: high yield debt instrument	A N N N	High Yield Debt instruments	3,18	2	2	1,00
419	T	nnn: ice bofaml bb-b	N N N	ICE BofAML BB-B	3,18	2	2	1,00
420	T	an: average duration	A N	average duration	3,18	2	2	0,50
421	T	ann: short term mmfs	A N N	short term MMFs	3,18	2	2	1,00
422	T	nnnn: interest rate sensitivity range	N N N N	interest rate sensitivity range	3,18	2	2	1,00
423	T	aann: sustainable enhanced bond 12m	A A N N	Sustainable Enhanced Bond 12M	3,18	2	1	1,00
424	T	an: annualised volatility	A N	annualised volatility	3,18	4	2	0,25
425	T	ann: downside market movement	A N N	downside market movements	3,18	2	1	0,50
426	T	npn: objective of sub-fund	N P N	objective of the sub-fund	3,18	2	2	0,50
427	T	aan: supranational sovereign agency	A A N	supranational sovereign agencies	3,18	2	2	1,00
428	T	an: allowable bandwidth	A N	allowable bandwidths	3,18	2	2	1,00
429	T	anpnn: integral part of investment policy	A N P N N	integral part of the investment policy	3,18	2	2	1,00
430	T	anan: mortgage-backed security tradable indices	A N A N	Mortgage-Backed Security Tradable Indices	3,18	2	2	1,00
431	T	npn: volatility of equity	N P N	volatility of equities	3,18	2	2	1,00
432	T	an: low correlation	A N	low correlation	3,18	2	2	1,00
433	T	an: local entity	A N	local entities	3,18	2	2	1,00
434	T	ann: mainland china security	A N N	mainland China securities	3,18	2	2	0,50
435	T	an: greater-than-average potential	A N	greater-than-average potential	3,18	2	2	1,00
436	T	anpn: high degree of liquidity	A N P N	high degree of liquidity	3,18	2	2	1,00
437	T	nnan: bnp pariba absolute return	N N A N	BNP Paribas Absolute Return	3,18	2	2	1,00
438	T	nnpn: risk fundamental of asset	N N P N	risk fundamentals of the assets	3,18	2	2	1,00
439	T	npan: strategy with absolute performance	N P A N	strategies with an absolute performance	3,18	2	2	1,00
440	T	nn: purchase date	N N	purchase date	3,18	2	2	1,00
441	T	nn: business model	N N	business models	3,18	2	1	0,50
442	T	ann: real estate asset	A N N	real estate assets	3,18	2	2	1,00
443	T	annn: diversified sub-fund target volatility	A N N N	diversified sub-fund targets volatility	3,18	2	2	1,00
444	T	nn: volatility constraint	N N	volatility constraint	3,18	2	2	1,00
445	T	ncnn: variance and volatility swap	N C N N	variance and volatility swaps	3,18	2	1	1,00
446	T	acan: active and fundamental approach	A C A N	active and fundamental approach	3,18	2	2	1,00
447	T	ncnn: allocation and issuer selection	N C N N	allocation and issuer selection	3,18	2	2	1,00
448	T	nann: tba mortgage-backed security derivative	N A N N	TBA Mortgage-Backed Security derivatives	3,18	2	2	1,00
449	T	ann: convertible bond strategy	A N N	convertible bonds strategies	3,18	2	2	1,00
450	T	an: large stock	A N	largest stock	3,18	2	2	0,50
451	T	ncnn: future and interest rate	N C N N	Futures and Interest Rate	3,18	2	2	1,00
452	T	ncan: asset and high yield	N C A N	assets and High Yield	3,18	2	2	1,00
453	T	an: stable growth	A N	stable growth	3,18	2	2	1,00
454	T	nnn: eurozone equity market	N N N	Eurozone equity markets	3,18	2	1	0,50
455	T	nnn: barclays euro aggregate	N N N	Barclays Euro Aggregate	3,18	2	2	0,50
456	T	nn: water infrastructure	N N	Water Infrastructure	3,18	2	2	1,00
457	T	npncn: degree of liquidity and diversification	N P N C N	degree of liquidity and diversification	3,18	2	2	1,00
458	T	ann: quantitative analysis force	A N N	quantitative analysis forces	3,18	2	2	1,00
459	T	ann: low market capitalisation	A N N	lowest market capitalisation	3,18	2	2	1,00
460	T	npn: description of strategy	N P N	Description of the strategies	3,18	2	2	1,00
461	T	ncnn: valuation and risk fundamental	N C N N	valuations and risk fundamentals	3,18	2	2	1,00
462	T	nn: portfolio rule	N N	Portfolio rules	3,18	2	2	1,00
463	T	an: secondary basis	A N	secondary basis	3,18	2	2	1,00
464	T	nn: capitalisation share	N N	Capitalisation shares	3,18	2	2	1,00
465	T	ann: real estate etf	A N N	Real Estate ETF	3,18	2	2	1,00
466	T	npn: proportion of asset	N P N	proportion of assets	3,18	2	2	1,00
467	T	an: controversial activity	A N	controversial activities	3,18	2	1	1,00
468	T	ann: non-rated debt instrument	A N N	non-rated debt instrument	3,18	2	2	1,00
469	T	r: dynamically	R	dynamically	3,18	2	2	1,00
470	T	an: environmental challenge	A N	environmental challenges	3,18	2	2	1,00
471	T	npnnn: advantage of market pricing anomaly	N P N N N	advantage of market pricing anomalies	3,18	2	2	1,00
472	T	nnpn: member country of eea	N N P N	member country of the EEA	3,18	2	2	1,00
473	T	ann: main equity market	A N N	main equity markets	3,18	2	1	1,00
474	T	an: supranational bill	A N	Supranational bills	3,18	4	3	1,00
475	T	an: directional approach	A N	directional approach	3,18	2	1	1,00
476	T	nnpn: income universe with bias	N N P N	income universe with a bias	3,18	2	1	1,00
477	T	anann: internal sustainability extra-financial research capability	A N A N N	internal sustainability extra-financial research capabilities	3,18	2	2	1,00
478	T	nva: position be subject	N V A	position is subject	3,18	2	1	1,00
479	T	an: environmental market	A N	Environmental Markets	3,18	2	2	0,50
480	T	npn: form of dividend	N P N	form of dividend	3,18	2	2	1,00
481	T	an: standard mmfs	A N	Standard MMFs	3,18	2	2	1,00
482	T	nnn: vix volatility index	N N N	VIX Volatility Index	3,18	2	2	1,00
483	T	nnan: investment grade corporate bond	N N A N	Investment Grade corporate bonds	3,18	2	2	1,00
484	T	n: euribor	N	Euribor	3,18	2	1	0,50
485	T	aan: contingent convertible bond	A A N	contingent convertible bonds	3,18	2	2	1,00
486	T	nnn: factor investment approach	N N N	Factor Investment approach	3,18	2	1	1,00
487	T	npnn: hedging of risk option	N P N N	hedging of those risks Options	3,18	2	2	1,00
488	T	aan: monthly back test	A A N	monthly back test	3,18	2	2	1,00
489	T	anpn: residual maturity of investment	A N P N	residual maturity of each investment	3,18	2	2	1,00
490	T	an: active management	A N	active management	3,18	2	2	1,00
491	T	nn: eurozone issue	N N	Eurozone issues	3,18	2	1	1,00
492	T	annnn: gdp-linked warrant equity index future	A N N N N	GDP-linked warrants Equity index futures	3,18	2	2	1,00
493	T	annn: secular consumer growth trend	A N N N	secular consumer growth trends	3,18	2	1	1,00
494	T	ann: long put spread	A N N	long Put spread	3,18	2	2	1,00
495	T	an: worldwide equity	A N	worldwide equities	3,18	2	1	1,00
496	T	npn: date of prospectus	N P N	date of this Prospectus	3,18	2	2	1,00
497	T	nnn: latin american equity	N N N	Latin American equities	3,18	2	1	1,00
498	T	ann: mid cap equity	A N N	mid cap equities	3,18	2	2	0,50
499	T	nn: asset equity	N N	assets Equity	3,18	2	1	0,50
500	T	nn: option position	N N	options positions	3,18	2	2	1,00
501	T	nnn: equity basket swap	N N N	Equity Basket Swaps	3,18	2	1	1,00
502	T	nn: country allocation	N N	country allocation	3,18	2	2	1,00
503	T	ann: tainable investment policy	A N N	tainable Investment Policy	3,18	2	2	1,00
504	T	nn: market debt	N N	Market Debt	3,18	2	2	0,50
505	T	npan: selection of dynamic asset	N P A N	selection of dynamic asset	3,18	2	1	1,00
506	T	an: diversified portfolio	A N	diversified portfolio	3,18	2	2	0,50
507	T	nnn: yield curve positioning	N N N	yield curve positioning	3,18	2	2	1,00
508	T	aaan: standard variable net asset	A A A N	standard variable net asset	3,18	2	2	1,00
509	T	an: net premium	A N	net premiums	3,18	2	2	1,00
510	T	ncnn: macro and credit research	N C N N	macro and credit research	3,18	2	2	1,00
511	T	an: closed-ended reits	A N	closed-ended REITs	3,18	2	2	1,00
512	T	ann: long time period	A N N	longer time period	3,18	2	2	1,00
513	T	nnn: risk budgeting approach	N N N	risk budgeting approach	3,18	2	1	1,00
514	T	ncnn: test and stress test	N C N N	test and stress tests	3,18	2	2	1,00
515	T	an: global equity	A N	Global equities	3,18	2	2	0,50
516	T	an: ancillary cash	A N	ancillary cash	3,18	2	2	1,00
517	T	anann: absolute return low vol bond	A N A N N	Absolute Return Low Vol Bond	3,18	2	1	1,00
518	T	an: sustainable activity	A N	sustainable activities	3,18	2	2	0,50
519	T	anann: absolute return diversified sub-fund target	A N A N N	absolute return diversified sub-fund targets	3,18	2	2	1,00
520	T	ann: short call spread	A N N	Short Call spread	3,18	2	2	1,00
521	T	nn: strike difference	N N	strikes differences	3,18	2	2	1,00
522	T	ncnn: bond and debt security	N C N N	bonds and debt securities	3,18	2	2	1,00
523	T	a: usd-denominated	A	USD-denominated	3,18	2	1	0,50
524	T	a: macro-economic	A	macro-economic	3,18	4	2	0,25
525	T	ann: large market capitalisation	A N N	largest market capitalisation	3,18	2	2	1,00
526	T	ann: reverse repurchase agreement	A N N	reverse repurchase agreements	3,18	2	2	1,00
527	T	npnn: deposit with credit institution	N P N N	Deposits with credit institutions	3,18	2	2	1,00
528	T	ann: diversified allocation strategy	A N N	diversified allocation strategy	3,18	2	2	0,50
529	T	n: cmbx	N	CMBX	3,18	2	2	1,00
530	T	n: governance	N	Governance	3,15	114	108	0,97
531	T	nn: investment manager	N N	Investment Manager	3,09	94	56	0,89
531	V[s]	nnn: investment manager applenvironmental	N N N	Investment Manager applEnvironmental	2,88	2	1	1,00
532	T	n: liquidity	N	liquidity	3,09	36	30	0,19
533	T	npn: interest of shareholder	N P N	interest of the shareholders	3,07	22	22	0,45
534	T	ann: total market capitalisation	A N N	total market capitalisation	3,05	3	1	0,67
535	T	npn: portfolio of euro	N P N	portfolio of euro	3,05	3	2	0,67
536	T	an: back test	A N	back test	3,05	3	2	0,33
536	V[s]	aan: monthly back test	A A N	monthly back test	3,18	2	2	1,00
537	T	aan: annualized standard deviation	A A N	annualized standard deviation	3,05	3	2	1,00
538	T	a: assenvironmental	A	ASSEnvironmental	3,05	3	2	1,00
539	T	ncan: risk-seeking or risk-averse behaviour	N C A N	risk-seeking or risk-averse behaviour	3,05	3	2	1,00
540	T	n: invesenvironmental	N	InvesEnvironmental	3,05	3	2	1,00
541	T	an: medium term	A N	medium term	3,02	99	91	0,99
542	T	nn: government bond	N N	government bonds	3,00	16	12	0,38
542	V[s]	ann: domestic government bond	A N N	Domestic government bonds	3,48	4	4	1,00
542	V[s]	ann: global government bond	A N N	Global Government Bonds	3,35	3	3	1,00
543	T	n: issuer	N	issuers	2,96	44	14	0,61
544	T	an: real estate	A N	real estate	2,89	30	8	0,20
545	T	npnpn: independence of board of director	N P N P N	independence of the Board of Directors	2,88	1	1	1,00
546	T	n: sub-w	N	sub-w	2,88	1	1	1,00
547	T	n: sub-h	N	sub-h	2,88	1	1	1,00
548	T	n: customization	N	customization	2,88	1	1	1,00
549	T	n: ienvironmental	N	IEnvironmental	2,88	1	1	1,00
550	T	an: underappreciated catalyst	A N	underappreciated catalysts	2,88	1	1	1,00
551	T	nn: euro stoxx	N N	EURO STOXX	2,88	2	1	1,00
552	T	a: unconstrained	A	unconstrained	2,88	1	1	1,00
553	T	nn: sri guidance	N N	SRI guidance	2,88	1	1	1,00
554	T	an: base currency	A N	Base Currency	2,88	2	1	1,00
555	T	nnn: pariba asset managementenvironmental	N N N	PARIBAS ASSET MANAGEMENTEnvironmental	2,88	2	1	1,00
556	T	nnn: pariba asset managenvironmental	N N N	PARIBAS ASSET MANAGEnvironmental	2,88	4	1	1,00
557	T	an: fundamental investing	A N	fundamental investing	2,88	1	1	1,00
558	T	an: disciplined screening	A N	disciplined screening	2,88	1	1	1,00
559	T	a: manged	A	manged	2,88	1	1	1,00
560	T	anpn: 3rd friday of march	A N P N	3rd Friday of March	2,88	1	1	1,00
561	T	n: sub-rencies	N	sub-rencies	2,88	1	1	1,00
562	T	an: plain vanilla	A N	Plain vanilla	2,88	1	1	1,00
563	T	a: tenvironmental	A	TEnvironmental	2,88	1	1	1,00
564	T	n: best-in-classectors	N	Best-in-Classectors	2,88	1	1	1,00
565	T	n: sub--s	N	sub--S	2,88	1	1	1,00
566	T	a: 75%of	A	75%of	2,88	1	1	1,00
567	T	a: over-the-counter	A	over-the-counter	2,88	1	1	1,00
568	T	n: ctively	N	ctively	2,88	1	1	1,00
569	T	an: artificial intelligence	A N	artificial intelligence	2,88	1	1	1,00
570	T	a: sub-xceed	A	sub-xceed	2,88	1	1	1,00
571	T	r: synthetically	R	synthetically	2,88	1	1	1,00
572	T	npn: effectiveness of assistance	N P N	effectiveness of the assistance	2,88	1	1	1,00
573	T	n: sub-may	N	sub-may	2,88	1	1	1,00
574	T	n: digitalization	N	digitalization	2,88	1	1	1,00
575	T	a: asenvironmental	A	ASEnvironmental	2,88	1	1	1,00
576	T	an: unfunded trs	A N	unfunded TRS	2,88	1	1	1,00
577	T	nn: jpmorgan embi	N N	JPMorgan EMBI	2,88	1	1	1,00
578	T	nnn: greenhouse gas emission	N N N	greenhouse gas emissions	2,88	1	1	1,00
579	T	nn: cloud computing	N N	cloud computing	2,88	1	1	1,00
580	T	ann: severe fx devaluation	A N N	severe FX devaluations	2,88	1	1	1,00
581	T	n: sub-up	N	sub-up	2,88	1	1	1,00
582	T	npn: medium-tem with aim	N P N	medium-tem with the aim	2,88	1	1	1,00
583	T	ann: floating-rate debt security	A N N	floating-rate debt securities	2,88	2	1	0,50
584	T	n: arming	N	arming	2,88	1	1	1,00
585	T	a: exchange-traded	A	exchange-traded	2,88	1	1	1,00
586	T	nn: drug delivery	N N	drug delivery	2,88	1	1	1,00
587	T	an: macro-economic fundamental	A N	macro-economic fundamentals	2,88	2	1	0,50
588	T	n: leverage	N	leverage	2,88	29	3	0,41
589	T	n: rqfii	N	RQFII	2,88	1	1	1,00
590	T	n: sub-than	N	sub-than	2,88	1	1	1,00
591	T	an: pure alpha	A N	pure alpha	2,88	1	1	1,00
592	T	nn: esg decile	N N	ESG deciles	2,88	1	1	1,00
593	T	n: eonia	N	Eonia	2,88	1	1	1,00
594	T	n: licy	N	licy	2,88	1	1	1,00
595	T	n: manenvironmental	N	MANEnvironmental	2,88	1	1	1,00
596	T	n: sub-arket	N	sub-arket	2,88	1	1	1,00
597	T	aan: irrational speculative attack	A A N	irrational speculative attacks	2,88	1	1	1,00
598	T	n: inistrator	N	inistrator	2,88	1	1	1,00
599	T	a: penvironmental	A	PEnvironmental	2,88	1	1	1,00
600	T	nnn: ubs thomson reuters	N N N	UBS Thomson Reuters	2,88	1	1	1,00
601	T	n: invemanager	N	InveManager	2,88	1	1	1,00
602	T	ncan: authosingapore and south africa	N C A N	authoSingapore and South Africa	2,88	1	1	1,00
603	T	nnn: investment manager applenvironmental	N N N	Investment Manager applEnvironmental	2,88	2	1	1,00
604	T	n: miniaturization	N	miniaturization	2,88	1	1	1,00
605	T	n: heloc	N	HELOC	2,88	1	1	1,00
606	T	nn: sub-hina a-assets	N N	sub-hina A-assets	2,88	1	1	1,00
607	T	n: asets	N	asets	2,88	1	1	1,00
608	T	n: exclusion-in-approach	N	exclusion-in-approach	2,88	1	1	1,00
609	T	a: alenvironmental	A	alEnvironmental	2,88	1	1	1,00
610	T	an: political news-flow	A N	political news-flow	2,88	1	1	1,00
611	T	n: subset	N	subset	2,88	1	1	1,00
612	T	an: bnp paribaenvironmental	A N	BNP PARIBAEnvironmental	2,88	2	1	1,00
613	T	n: robotic	N	robotics	2,88	1	1	1,00
614	T	n: protectioperformance	N	protectioperformance	2,88	1	1	1,00
615	T	nn: investment strategy	N N	investment strategy	2,81	13	7	0,85
616	T	nn: business activity	N N	business activities	2,72	24	23	1,00
617	T	an: significant proportion	A N	significant proportion	2,71	17	17	1,00
618	T	n: portion	N	portion	2,71	82	82	1,00
619	T	a: environmental	A	Environmental	2,68	106	86	0,79
620	T	a: diversified	A	diversified	2,66	8	8	0,13
621	T	an: financial structure	A N	financial structure	2,61	6	6	0,67
622	T	a: outright	A	outright	2,61	7	4	0,43
623	T	n: euro	N	euro	2,60	45	28	0,49
624	T	an: corporate bond	A N	corporate bonds	2,60	25	18	0,60
625	T	a: corporate	A	corporate	2,54	56	27	0,21
626	T	n: equity	N	equities	2,50	276	81	0,39
627	T	n: transaction	N	Transactions	2,48	153	103	0,63
628	T	an: environmental project	A N	environmental projects	2,48	4	2	1,00
629	T	n: asset	N	assets	2,46	577	108	0,79
630	T	n: portfolio	N	portfolio	2,45	237	100	0,22
631	T	a: global	A	global	2,44	35	17	0,29
632	T	nn: market capitalisation	N N	market capitalisation	2,39	17	8	0,29
632	V[s]	ann: low market capitalisation	A N N	lowest market capitalisation	3,18	2	2	1,00
633	T	npn: state of america	N P N	States of America	2,38	6	6	1,00
634	T	n: criterion	N	criteria	2,35	156	108	0,77
635	T	n: weighting	N	weightings	2,34	9	6	0,33
636	T	n: maximum	N	maximum	2,33	116	95	0,98
637	T	an: long-term view	A N	long-term views	2,31	3	3	1,00
638	T	nn: energy efficiency	N N	Energy Efficiency	2,31	3	3	0,67
639	T	a: social	A	Social	2,30	117	108	0,92
640	T	n: security	N	securities	2,28	450	106	0,32
641	T	n: bond	N	bonds	2,28	221	54	0,25
642	T	an: foreign exchange	A N	foreign exchange	2,27	12	7	0,50
643	T	a: liquid	A	liquid	2,25	5	4	0,20
644	T	r: primarily	R	primarily	2,25	68	68	1,00
645	T	nn: waste management	N N	Waste Management	2,24	3	3	1,00
646	T	an: national boundary	A N	national boundaries	2,22	4	4	1,00
647	T	an: financial instrument	A N	financial instruments	2,21	3	3	1,00
647	V[s]	aan: financial derivative instrument	A A N	financial derivative instruments	4,64	117	100	0,16
648	T	an: international organisation	A N	international organisations	2,20	4	4	1,00
649	T	n: exposure	N	exposure	2,19	105	59	0,66
650	T	a: medium-term	A	medium-term	2,18	3	2	1,00
650	V[mg]	an: medium term	A N	medium term	3,02	99	91	0,99
651	T	an: high return	A N	higher return	2,16	4	4	1,00
652	T	npn: level of risk	N P N	level of risk	2,14	2	1	0,50
653	T	an: european company	A N	European companies	2,12	4	4	0,75
654	T	n: duration	N	duration	2,12	14	12	0,36
655	T	r: indirectly	R	indirectly	2,11	14	10	1,00
656	T	an: good score	A N	good score	2,10	4	4	1,00
657	T	an: japanese equity	A N	Japanese equities	2,10	2	2	0,50
658	T	nn: bond market	N N	Bond market	2,07	6	5	0,17
658	V[s]	nnn: interbank bond market	N N N	Interbank Bond market	3,57	5	5	0,20
658	V[s]	nnnn: china interbank bond market	N N N N	China Interbank Bond market	3,48	4	4	1,00
659	T	a: russell	A	Russell	2,06	7	2	0,71
660	T	nn: market condition	N N	market conditions	2,06	13	9	0,46
660	V[s]	ann: normal market condition	A N N	normal market conditions	3,48	4	4	1,00
661	T	n: proxy	N	proxy	2,05	6	3	1,00
662	T	an: pacific region	A N	Pacific region	2,05	3	2	1,00
663	T	nn: equity market	N N	equity markets	2,04	8	2	0,25
663	V[s]	nnn: eurozone equity market	N N N	Eurozone equity markets	3,18	2	1	0,50
663	V[s]	ann: main equity market	A N N	main equity markets	3,18	2	1	1,00
664	T	n: index	N	index	2,02	144	41	0,53
665	T	n: commodity	N	commodities	2,01	26	6	0,50
666	T	an: hard currency	A N	hard currencies	2,00	2	2	1,00
667	T	an: net asset	A N	net assets	1,98	12	11	0,67
668	T	nnn: money market rate	N N N	money market rates	1,98	2	2	1,00
669	T	n: restructuring	N	restructuring	1,96	29	20	0,10
670	T	nn: member country	N N	member country	1,94	3	3	0,33
670	V[s]	nnpn: member country of eea	N N P N	member country of the EEA	3,18	2	2	1,00
671	T	an: foreign currency	A N	foreign currencies	1,93	3	3	0,67
672	T	n: equivalent	N	equivalent	1,92	79	69	0,24
673	T	r: monthly	R	monthly	1,92	11	7	1,00
674	T	a: asian	A	Asian	1,91	3	3	0,67
675	T	an: direct investment	A N	direct investment	1,90	2	2	0,50
676	T	a: advantageous	A	advantageous	1,90	4	4	1,00
677	T	n: correlation	N	correlation	1,88	3	3	0,33
678	T	nn: climate change	N N	climate change	1,88	3	1	1,00
679	T	r: promptly	R	promptly	1,88	22	22	1,00
680	T	an: significant part	A N	significant part	1,87	4	4	1,00
681	T	n: filter	N	filter	1,85	6	3	0,67
682	T	a: relative	A	relative	1,77	14	10	0,14
683	T	n: biodiversity	N	biodiversity	1,77	1	1	1,00
684	T	n: benchmark	N	benchmark	1,75	7	2	1,00
685	T	a: exhaustive	A	exhaustive	1,71	1	1	1,00
686	T	n: fundamental	N	fundamentals	1,67	10	3	0,50
687	T	n: limit	N	limit	1,67	74	54	0,69
688	T	n: strategy	N	strategy	1,66	101	32	0,25
689	T	n: mitigation	N	mitigation	1,65	2	1	1,00
690	T	n: tracker	N	trackers	1,65	1	1	1,00
691	T	n: cash	N	cash	1,64	130	100	0,73
692	T	a: voluntary	A	voluntary	1,63	6	3	0,50
693	T	n: maturity	N	maturity	1,61	10	7	0,20
694	T	n: diversification	N	diversification	1,61	6	6	0,50
695	T	r: smart	R	SMaRT	1,61	1	1	1,00
696	T	n: automation	N	automation	1,56	1	1	1,00
697	T	n: purpose	N	purposes	1,55	57	28	0,14
698	T	n: risk	N	risk	1,55	119	32	0,22
699	T	r: structurally	R	Structurally	1,54	1	1	1,00
700	T	n: transition	N	transition	1,54	12	7	0,58
701	T	n: momentum	N	momentum	1,53	15	14	1,00
702	T	n: warrant	N	warrants	1,53	17	15	0,76
703	T	a: respective	A	respective	1,53	1	1	1,00
704	T	n: valuation	N	valuation	1,52	9	9	0,11
705	T	n: anticipation	N	anticipations	1,52	5	5	0,20
706	T	nn: student loan	N N	student loans	1,51	3	3	1,00
707	T	n: credit	N	credit	1,51	40	16	0,15
708	T	an: international market	A N	international markets	1,49	2	2	1,00
709	T	a: aggregate	A	Aggregate	1,47	16	8	0,31
710	T	nn: interest rate	N N	interest rate	1,46	43	12	0,14
710	V[s]	nnn: interest rate swap	N N N	Interest Rate Swaps	3,83	9	3	0,67
710	V[s]	annn: short term interest rate	A N N N	short term interest rate	3,65	6	2	0,17
710	V[s]	nnn: interest rate sensitivity	N N N	interest rate sensitivity	3,57	5	5	0,60
710	V[s]	ann: liquid interest rate	A N N	liquid interest rates	3,18	2	1	1,00
710	V[s]	nnn: interest rate derivative	N N N	interest rates derivatives	3,18	2	1	1,00
711	T	r: actively	R	actively	1,45	12	10	1,00
712	T	nn: latin american	N N	Latin American	1,45	4	1	0,50
712	V[s]	nnn: latin american equity	N N N	Latin American equities	3,18	2	1	1,00
713	T	a: genetic	A	genetic	1,44	1	1	1,00
714	T	n: forward	N	Forwards	1,44	11	7	0,18
715	T	nn: inflation rate	N N	inflation rate	1,43	2	2	0,50
716	T	n: proportion	N	proportion	1,42	23	23	0,17
717	T	n: currency	N	currencies	1,42	52	26	0,50
718	T	nn: member state	N N	member states	1,41	11	9	0,73
718	V[s]	nnpn: member state of eurozone	N N P N	member states of the Eurozone	3,18	2	2	1,00
719	T	a: minimum	A	minimum	1,40	14	7	0,43
720	T	a: multiple	A	multiple	1,38	3	2	0,33
721	T	r: systematically	R	systematically	1,37	2	2	1,00
722	T	an: major part	A N	major part	1,36	2	2	1,00
723	T	r: predominantly	R	predominantly	1,35	3	3	1,00
724	T	a: flexible	A	flexible	1,35	7	4	0,14
725	T	a: short	A	short	1,35	49	29	0,12
726	T	a: representative	A	representative	1,34	2	2	0,50
727	T	r: globally	R	globally	1,34	1	1	1,00
728	T	a: moody	A	Moody	1,32	3	3	1,00
729	T	a: inside	A	inside	1,32	1	1	1,00
730	T	r: directly	R	directly	1,31	29	21	1,00
731	T	an: good practice	A N	best practices	1,29	3	3	0,67
732	T	r: economically	R	economically	1,29	4	4	1,00
733	T	a: worldwide	A	worldwide	1,29	12	5	0,58
734	T	a: structured	A	structured	1,28	36	22	0,17
735	T	n: monitoring	N	monitoring	1,27	3	3	1,00
736	T	n: billion	N	billion	1,27	1	1	1,00
737	T	nn: management team	N N	management team	1,26	5	5	0,80
738	T	an: european currency	A N	European currencies	1,23	3	2	0,67
739	T	n: recommendation	N	recommendation	1,22	20	4	0,20
740	T	n: elimination	N	elimination	1,22	1	1	1,00
741	T	n: interpretation	N	interpretation	1,20	6	5	1,00
742	T	r: approximately	R	approximately	1,20	7	6	1,00
743	T	a: preferred	A	preferred	1,20	3	2	0,67
744	T	n: book	N	Book	1,19	121	99	0,99
745	T	r: alongside	R	Alongside	1,19	1	1	1,00
746	T	r: efficiently	R	efficiently	1,17	3	3	1,00
747	T	a: safe	A	safe	1,15	23	23	1,00
748	T	n: proceed	N	proceeds	1,15	6	3	0,50
749	T	n: transparency	N	transparency	1,15	1	1	1,00
750	T	n: greece	N	Greece	1,14	7	7	1,00
751	T	n: isolation	N	isolation	1,14	4	4	1,00
752	T	r: versa	R	versa	1,14	1	1	1,00
753	T	n: asia	N	Asia	1,13	6	4	0,83
754	T	a: applicable	A	applicable	1,13	1	1	1,00
755	T	a: human	A	human	1,13	4	2	0,25
756	T	a: chinese	A	Chinese	1,12	4	2	0,50
757	T	n: capital	N	capital	1,12	37	32	0,11
758	T	n: approach	N	approach	1,12	47	25	0,11
759	T	n: income	N	income	1,12	42	20	0,21
760	T	n: characteristic	N	characteristics	1,11	3	3	0,33
761	T	n: order	N	order	1,11	76	46	1,00
762	T	n: majority	N	majority	1,10	27	26	1,00
763	T	n: flexibility	N	flexibility	1,08	6	3	1,00
764	T	n: respect	N	respect	1,08	19	19	0,16
765	T	r: typically	R	typically	1,08	4	4	1,00
766	T	a: similar	A	similar	1,07	13	11	0,15
767	T	n: ranking	N	ranking	1,07	4	4	1,00
768	T	nn: capital growth	N N	capital growth	1,07	2	2	1,00
769	T	n: return	N	return	1,06	50	20	0,18
770	T	a: average	A	average	1,06	19	17	0,11
771	T	n: turkey	N	Turkey	1,06	8	8	1,00
772	T	n: morgan	N	Morgan	1,05	4	4	0,75
773	T	n: factor	N	factor	1,04	30	18	0,10
774	T	r: prior	R	prior	1,04	7	7	1,00
775	T	r: comparatively	R	comparatively	1,03	1	1	1,00
776	T	nn: credit card	N N	credit cards	1,02	3	3	1,00
777	T	r: chiefly	R	chiefly	1,01	1	1	1,00
778	T	n: option	N	options	1,01	35	10	0,37
779	T	n: inflation	N	inflation	1,00	16	7	0,25
780	T	n: purchase	N	purchase	0,99	9	7	0,11
781	T	n: taiwan	N	Taiwan	0,99	1	1	1,00
782	T	n: adaptation	N	adaptation	0,96	2	1	1,00
783	T	n: distribution	N	distribution	0,95	4	3	0,25
784	T	r: partially	R	partially	0,95	2	2	1,00
785	T	n: combination	N	combination	0,95	5	5	1,00
786	T	n: point	N	points	0,95	96	95	0,96
787	T	n: fund	N	fund	0,95	40	23	0,25
788	T	n: peer	N	peers	0,94	4	4	1,00
789	T	an: low level	A N	low level	0,93	2	2	1,00
790	T	n: account	N	account	0,93	29	28	1,00
791	T	n: guarantee	N	guarantee	0,93	5	5	1,00
792	T	n: topic	N	topics	0,92	3	3	1,00
793	T	n: dependence	N	dependence	0,92	1	1	1,00
794	T	n: livestock	N	Livestock	0,92	2	2	1,00
795	T	n: condition	N	conditions	0,91	41	28	0,56
796	T	a: senior	A	senior	0,90	4	4	0,75
797	T	n: analysis	N	analysis	0,89	5	4	0,20
798	T	n: process	N	process	0,88	35	23	0,49
799	T	a: vice	A	vice	0,88	1	1	1,00
800	T	a: long	A	long	0,87	20	9	0,25
801	T	n: trading	N	trading	0,87	8	6	0,25
802	T	n: healthcare	N	healthcare	0,86	3	1	0,33
803	T	n: china	N	China	0,85	9	8	0,11
804	T	n: treasury	N	Treasury	0,85	6	5	0,33
805	T	n: event	N	event	0,84	51	23	0,67
806	T	n: quality	N	quality	0,84	20	20	0,85
807	T	n: kingdom	N	Kingdom	0,84	6	6	1,00
808	T	n: pornography	N	pornography	0,84	1	1	1,00
809	T	n: environment	N	environment	0,84	14	11	0,29
810	T	a: industrial	A	industrial	0,82	2	1	0,50
811	T	n: dividend	N	dividend	0,81	11	8	0,36
812	T	n: remuneration	N	remuneration	0,81	1	1	1,00
813	T	n: profitability	N	profitability	0,80	2	2	0,50
814	T	n: business	N	business	0,79	76	61	0,26
815	T	n: iceland	N	Iceland	0,79	1	1	1,00
816	T	n: gambling	N	gambling	0,79	1	1	1,00
817	T	n: agency	N	agencies	0,78	17	9	0,47
818	T	n: potential	N	potential	0,78	8	8	0,63
819	T	r: purely	R	purely	0,78	2	2	0,50
820	T	r: long	R	long	0,77	25	24	1,00
821	T	a: annual	A	annual	0,77	2	2	0,50
822	T	r: high	R	High	0,77	1	1	1,00
823	T	n: infrastructure	N	Infrastructure	0,77	3	3	0,33
824	T	n: sector	N	sector	0,77	24	18	0,50
825	T	a: local	A	local	0,77	6	5	0,17
826	T	a: consistent	A	consistent	0,76	2	2	1,00
827	T	n: position	N	positions	0,76	33	10	0,21
828	T	n: forestry	N	forestry	0,76	1	1	1,00
829	T	n: forecast	N	forecasts	0,76	4	4	0,75
830	T	n: technology	N	Technologies	0,75	12	6	0,58
831	T	n: company	N	companies	0,75	139	86	0,60
832	T	n: target	N	target	0,74	13	7	0,23
833	T	n: view	N	views	0,74	32	6	0,88
834	T	n: cost	N	cost	0,74	35	30	0,89
835	T	n: note	N	notes	0,73	10	8	0,80
836	T	n: hong	N	Hong	0,73	2	1	0,50
837	T	r: fully	R	fully	0,73	11	11	1,00
838	T	r: widely	R	widely	0,72	6	3	1,00
839	T	n: premium	N	premiums	0,72	4	2	0,50
840	T	n: manner	N	manner	0,71	6	6	0,33
841	T	n: practice	N	practices	0,71	12	8	0,50
842	T	n: performance	N	performance	0,70	26	21	0,38
843	T	n: country	N	countries	0,70	61	29	0,46
844	T	n: fight	N	fight	0,67	9	8	1,00
845	T	n: tobacco	N	tobacco	0,66	1	1	1,00
846	T	n: focus	N	focus	0,66	3	3	0,67
847	T	n: future	N	futures	0,65	23	11	0,30
848	T	a: small	A	small	0,64	10	6	0,10
849	T	n: product	N	products	0,64	16	10	0,81
850	T	n: japan	N	Japan	0,64	9	6	1,00
851	T	n: ratio	N	ratios	0,64	1	1	1,00
852	T	n: addition	N	addition	0,61	7	7	1,00
853	T	r: broadly	R	broadly	0,61	1	1	1,00
854	T	r: significantly	R	significantly	0,61	3	3	1,00
855	T	n: share	N	shares	0,60	25	20	0,40
856	T	a: current	A	current	0,59	2	2	0,50
857	T	n: impact	N	impacts	0,59	6	6	0,17
858	T	n: circumstance	N	circumstances	0,59	7	4	1,00
859	T	n: agriculture	N	agriculture	0,59	2	2	0,50
860	T	n: counter	N	counter	0,58	1	1	1,00
861	T	r: longer	R	longer	0,58	10	10	1,00
862	T	a: sensitive	A	sensitive	0,57	1	1	1,00
863	T	n: challenge	N	challenges	0,57	9	8	0,67
864	T	a: regulatory	A	regulatory	0,57	2	1	1,00
865	T	r: wholly	R	wholly	0,57	1	1	1,00
866	T	n: america	N	America	0,56	8	7	0,13
867	T	n: solution	N	solutions	0,56	5	4	1,00
868	T	n: close	N	close	0,54	9	8	0,11
869	T	n: food	N	food	0,54	8	6	0,13
870	T	n: constituent	N	constituents	0,54	1	1	1,00
871	T	n: opportunity	N	Opportunities	0,53	15	9	0,33
872	T	n: belgium	N	Belgium	0,52	2	1	0,50
873	T	n: situation	N	situation	0,52	12	12	1,00
874	T	r: sufficiently	R	sufficiently	0,52	1	1	1,00
875	T	n: investor	N	investors	0,51	5	5	0,20
876	T	n: participation	N	participation	0,50	1	1	1,00
877	T	n: brazil	N	Brazil	0,49	1	1	1,00
878	T	n: january	N	January	0,49	5	5	1,00
879	T	r: essentially	R	essentially	0,49	1	1	1,00
880	T	n: innovation	N	innovation	0,47	1	1	1,00
881	T	n: regulation	N	Regulation	0,47	3	3	0,67
882	T	a: equal	A	equal	0,47	1	1	1,00
883	T	a: unchanged	A	unchanged	0,47	1	1	1,00
884	T	a: expensive	A	expensive	0,46	2	2	1,00
885	T	r: annually	R	annually	0,46	1	1	1,00
886	T	n: tool	N	tool	0,45	1	1	1,00
887	T	an: european union	A N	European Union	0,44	2	2	0,50
888	T	n: earth	N	EARTH	0,44	2	1	1,00
889	T	n: table	N	table	0,43	5	4	1,00
890	T	n: trade	N	trade	0,43	5	4	0,80
891	T	n: unit	N	units	0,43	7	6	0,71
892	T	n: protection	N	protection	0,42	2	2	0,50
893	T	n: level	N	level	0,42	12	10	0,17
894	T	n: arrangement	N	arrangement	0,42	3	3	1,00
895	T	n: month	N	month	0,41	36	30	0,44
896	T	n: consideration	N	consideration	0,40	2	2	0,50
897	T	a: responsible	A	Responsible	0,40	4	3	0,25
898	T	n: time	N	times	0,39	71	55	0,89
899	T	n: loss	N	loss	0,39	6	3	0,83
900	T	r: closer	R	closer	0,38	1	1	1,00
901	T	n: pool	N	pool	0,38	2	2	1,00
902	T	n: denmark	N	Denmark	0,38	1	1	1,00
903	T	r: repeatedly	R	repeatedly	0,37	1	1	1,00
904	T	n: europe	N	Europe	0,37	12	11	0,92
905	T	n: government	N	Government	0,37	32	17	0,34
906	T	n: health	N	health	0,36	4	4	0,50
907	T	n: responsibility	N	responsibility	0,34	4	4	0,25
908	T	n: water	N	water	0,34	7	4	0,29
909	T	n: communication	N	communication	0,33	1	1	1,00
910	T	n: alcohol	N	alcohol	0,32	1	1	1,00
911	T	n: material	N	materials	0,32	3	2	0,33
912	T	n: winter	N	Winter	0,32	2	1	1,00
913	T	n: case	N	case	0,31	16	15	0,25
914	T	n: indication	N	indication	0,30	1	1	1,00
915	T	n: organisation	N	organisations	0,30	5	4	0,20
916	T	n: india	N	India	0,28	1	1	1,00
917	T	n: canada	N	Canada	0,27	1	1	1,00
918	T	n: service	N	services	0,27	16	10	0,81
919	T	n: profit	N	profits	0,26	5	5	1,00
920	T	n: autumn	N	Autumn	0,26	1	1	1,00
921	T	n: price	N	price	0,25	8	8	0,13
922	T	n: advance	N	advances	0,24	1	1	1,00
923	T	n: world	N	world	0,23	10	10	0,10
924	T	n: december	N	December	0,23	2	1	1,00
925	T	n: instance	N	instance	0,22	1	1	1,00
926	T	n: balance	N	balance	0,21	1	1	1,00
927	T	r: totally	R	totally	0,20	1	1	1,00
928	T	n: information	N	information	0,19	3	3	0,67
929	T	r: extremely	R	extremely	0,19	1	1	1,00
930	T	n: spring	N	Spring	0,19	1	1	1,00
931	T	n: principle	N	Principles	0,19	1	1	1,00
932	T	r: completely	R	completely	0,18	1	1	1,00
933	T	n: increase	N	increase	0,17	3	2	0,33
934	T	n: problem	N	problems	0,17	7	7	0,86
935	T	n: education	N	education	0,17	2	2	1,00
936	T	n: russia	N	Russia	0,17	1	1	1,00
937	T	n: quarter	N	quarter	0,16	1	1	1,00
938	T	n: access	N	Access	0,14	1	1	1,00
939	T	n: past	N	past	0,13	1	1	1,00
940	T	r: finally	R	Finally	0,12	1	1	1,00
941	T	n: accident	N	accidents	0,12	1	1	1,00
942	T	n: series	N	series	0,12	1	1	1,00
943	T	n: germany	N	Germany	0,11	1	1	1,00
944	T	n: decision	N	decision	0,11	3	1	0,33
945	T	n: september	N	September	0,11	1	1	1,00
946	T	a: great	A	greater	0,11	1	1	1,00
947	T	n: hand	N	hand	0,10	2	1	0,50
948	T	n: fact	N	fact	0,10	3	2	1,00
949	T	n: land	N	land	0,10	1	1	1,00
950	T	n: year	N	years	0,09	21	16	0,62
951	T	n: summer	N	Summer	0,09	1	1	1,00
952	T	n: line	N	line	0,09	2	2	1,00
953	T	n: experience	N	experience	0,08	1	1	1,00
954	T	n: concern	N	concerns	0,07	1	1	1,00
955	T	n: community	N	communities	0,07	1	1	1,00
956	T	n: hour	N	hours	0,05	1	1	1,00
957	T	n: industry	N	industry	0,04	1	1	1,00
958	T	n: season	N	season	0,04	1	1	1,00
959	T	n: week	N	weeks	0,03	2	2	1,00
960	T	n: work	N	work	0,03	1	1	1,00
