Validation_Set,Topics,Alpha,Beta,Coherence
50% Corpus,2,0.01,0.01,0.6031663976044391
50% Corpus,2,0.01,0.31,0.5628046251449723
50% Corpus,2,0.01,0.61,0.5692712691687469
50% Corpus,2,0.01,0.9099999999999999,0.5672885204933136
50% Corpus,2,0.01,symmetric,0.602212515004686
50% Corpus,2,0.31,0.01,0.6513010098018963
50% Corpus,2,0.31,0.31,0.6399431247693235
50% Corpus,2,0.31,0.61,0.6151445329580004
50% Corpus,2,0.31,0.9099999999999999,0.6210346679021951
50% Corpus,2,0.31,symmetric,0.6555984707535014
50% Corpus,2,0.61,0.01,0.640317342318713
50% Corpus,2,0.61,0.31,0.6522594218665059
50% Corpus,2,0.61,0.61,0.65308967740426
50% Corpus,2,0.61,0.9099999999999999,0.6597265908467853
50% Corpus,2,0.61,symmetric,0.6396361885140712
50% Corpus,2,0.9099999999999999,0.01,0.6127655088011281
50% Corpus,2,0.9099999999999999,0.31,0.6158157505421096
50% Corpus,2,0.9099999999999999,0.61,0.6426416247483149
50% Corpus,2,0.9099999999999999,0.9099999999999999,0.6391838416444885
50% Corpus,2,0.9099999999999999,symmetric,0.6229819467450672
50% Corpus,2,symmetric,0.01,0.5962987733949527
50% Corpus,2,symmetric,0.31,0.5926383035631324
50% Corpus,2,symmetric,0.61,0.5870821772803766
50% Corpus,2,symmetric,0.9099999999999999,0.5806392702461141
50% Corpus,2,symmetric,symmetric,0.5829220559100075
50% Corpus,2,asymmetric,0.01,0.6641271471113339
50% Corpus,2,asymmetric,0.31,0.6804534911015316
50% Corpus,2,asymmetric,0.61,0.6486362563279319
50% Corpus,2,asymmetric,0.9099999999999999,0.643119754812975
50% Corpus,2,asymmetric,symmetric,0.6861428340685858
50% Corpus,3,0.01,0.01,0.6031663976044391
50% Corpus,3,0.01,0.31,0.5628046251449723
50% Corpus,3,0.01,0.61,0.5692712691687469
50% Corpus,3,0.01,0.9099999999999999,0.5672885204933136
50% Corpus,3,0.01,symmetric,0.602212515004686
50% Corpus,3,0.31,0.01,0.6513010098018963
50% Corpus,3,0.31,0.31,0.6399431247693235
50% Corpus,3,0.31,0.61,0.6151445329580004
50% Corpus,3,0.31,0.9099999999999999,0.6210346679021951
50% Corpus,3,0.31,symmetric,0.6555984707535014
50% Corpus,3,0.61,0.01,0.640317342318713
50% Corpus,3,0.61,0.31,0.6522594218665059
50% Corpus,3,0.61,0.61,0.65308967740426
50% Corpus,3,0.61,0.9099999999999999,0.6597265908467853
50% Corpus,3,0.61,symmetric,0.6396361885140712
50% Corpus,3,0.9099999999999999,0.01,0.6127655088011281
50% Corpus,3,0.9099999999999999,0.31,0.6158157505421096
50% Corpus,3,0.9099999999999999,0.61,0.6426416247483149
50% Corpus,3,0.9099999999999999,0.9099999999999999,0.6391838416444885
50% Corpus,3,0.9099999999999999,symmetric,0.6229819467450672
50% Corpus,3,symmetric,0.01,0.5962987733949527
50% Corpus,3,symmetric,0.31,0.5926383035631324
50% Corpus,3,symmetric,0.61,0.5870821772803766
50% Corpus,3,symmetric,0.9099999999999999,0.5806392702461141
50% Corpus,3,symmetric,symmetric,0.5829220559100075
50% Corpus,3,asymmetric,0.01,0.6641271471113339
50% Corpus,3,asymmetric,0.31,0.6804534911015316
50% Corpus,3,asymmetric,0.61,0.6486362563279319
50% Corpus,3,asymmetric,0.9099999999999999,0.643119754812975
50% Corpus,3,asymmetric,symmetric,0.6861428340685858
50% Corpus,4,0.01,0.01,0.6031663976044391
50% Corpus,4,0.01,0.31,0.5628046251449723
50% Corpus,4,0.01,0.61,0.5692712691687469
50% Corpus,4,0.01,0.9099999999999999,0.5672885204933136
50% Corpus,4,0.01,symmetric,0.602212515004686
50% Corpus,4,0.31,0.01,0.6513010098018963
50% Corpus,4,0.31,0.31,0.6399431247693235
50% Corpus,4,0.31,0.61,0.6151445329580004
50% Corpus,4,0.31,0.9099999999999999,0.6210346679021951
50% Corpus,4,0.31,symmetric,0.6555984707535014
50% Corpus,4,0.61,0.01,0.640317342318713
50% Corpus,4,0.61,0.31,0.6522594218665059
50% Corpus,4,0.61,0.61,0.65308967740426
50% Corpus,4,0.61,0.9099999999999999,0.6597265908467853
50% Corpus,4,0.61,symmetric,0.6396361885140712
50% Corpus,4,0.9099999999999999,0.01,0.6127655088011281
50% Corpus,4,0.9099999999999999,0.31,0.6158157505421096
50% Corpus,4,0.9099999999999999,0.61,0.6426416247483149
50% Corpus,4,0.9099999999999999,0.9099999999999999,0.6391838416444885
50% Corpus,4,0.9099999999999999,symmetric,0.6229819467450672
50% Corpus,4,symmetric,0.01,0.5962987733949527
50% Corpus,4,symmetric,0.31,0.5926383035631324
50% Corpus,4,symmetric,0.61,0.5870821772803766
50% Corpus,4,symmetric,0.9099999999999999,0.5806392702461141
50% Corpus,4,symmetric,symmetric,0.5829220559100075
50% Corpus,4,asymmetric,0.01,0.6641271471113339
50% Corpus,4,asymmetric,0.31,0.6804534911015316
50% Corpus,4,asymmetric,0.61,0.6486362563279319
50% Corpus,4,asymmetric,0.9099999999999999,0.643119754812975
50% Corpus,4,asymmetric,symmetric,0.6861428340685858
50% Corpus,5,0.01,0.01,0.6031663976044391
50% Corpus,5,0.01,0.31,0.5628046251449723
50% Corpus,5,0.01,0.61,0.5692712691687469
50% Corpus,5,0.01,0.9099999999999999,0.5672885204933136
50% Corpus,5,0.01,symmetric,0.602212515004686
50% Corpus,5,0.31,0.01,0.6513010098018963
50% Corpus,5,0.31,0.31,0.6399431247693235
50% Corpus,5,0.31,0.61,0.6151445329580004
50% Corpus,5,0.31,0.9099999999999999,0.6210346679021951
50% Corpus,5,0.31,symmetric,0.6555984707535014
50% Corpus,5,0.61,0.01,0.640317342318713
50% Corpus,5,0.61,0.31,0.6522594218665059
50% Corpus,5,0.61,0.61,0.65308967740426
50% Corpus,5,0.61,0.9099999999999999,0.6597265908467853
50% Corpus,5,0.61,symmetric,0.6396361885140712
50% Corpus,5,0.9099999999999999,0.01,0.6127655088011281
50% Corpus,5,0.9099999999999999,0.31,0.6158157505421096
50% Corpus,5,0.9099999999999999,0.61,0.6426416247483149
50% Corpus,5,0.9099999999999999,0.9099999999999999,0.6391838416444885
50% Corpus,5,0.9099999999999999,symmetric,0.6229819467450672
50% Corpus,5,symmetric,0.01,0.5962987733949527
50% Corpus,5,symmetric,0.31,0.5926383035631324
50% Corpus,5,symmetric,0.61,0.5870821772803766
50% Corpus,5,symmetric,0.9099999999999999,0.5806392702461141
50% Corpus,5,symmetric,symmetric,0.5829220559100075
50% Corpus,5,asymmetric,0.01,0.6641271471113339
50% Corpus,5,asymmetric,0.31,0.6804534911015316
50% Corpus,5,asymmetric,0.61,0.6486362563279319
50% Corpus,5,asymmetric,0.9099999999999999,0.643119754812975
50% Corpus,5,asymmetric,symmetric,0.6861428340685858
50% Corpus,6,0.01,0.01,0.6031663976044391
50% Corpus,6,0.01,0.31,0.5628046251449723
50% Corpus,6,0.01,0.61,0.5692712691687469
50% Corpus,6,0.01,0.9099999999999999,0.5672885204933136
50% Corpus,6,0.01,symmetric,0.602212515004686
50% Corpus,6,0.31,0.01,0.6513010098018963
50% Corpus,6,0.31,0.31,0.6399431247693235
50% Corpus,6,0.31,0.61,0.6151445329580004
50% Corpus,6,0.31,0.9099999999999999,0.6210346679021951
50% Corpus,6,0.31,symmetric,0.6555984707535014
50% Corpus,6,0.61,0.01,0.640317342318713
50% Corpus,6,0.61,0.31,0.6522594218665059
50% Corpus,6,0.61,0.61,0.65308967740426
50% Corpus,6,0.61,0.9099999999999999,0.6597265908467853
50% Corpus,6,0.61,symmetric,0.6396361885140712
50% Corpus,6,0.9099999999999999,0.01,0.6127655088011281
50% Corpus,6,0.9099999999999999,0.31,0.6158157505421096
50% Corpus,6,0.9099999999999999,0.61,0.6426416247483149
50% Corpus,6,0.9099999999999999,0.9099999999999999,0.6391838416444885
50% Corpus,6,0.9099999999999999,symmetric,0.6229819467450672
50% Corpus,6,symmetric,0.01,0.5962987733949527
50% Corpus,6,symmetric,0.31,0.5926383035631324
50% Corpus,6,symmetric,0.61,0.5870821772803766
50% Corpus,6,symmetric,0.9099999999999999,0.5806392702461141
50% Corpus,6,symmetric,symmetric,0.5829220559100075
50% Corpus,6,asymmetric,0.01,0.6641271471113339
50% Corpus,6,asymmetric,0.31,0.6804534911015316
50% Corpus,6,asymmetric,0.61,0.6486362563279319
50% Corpus,6,asymmetric,0.9099999999999999,0.643119754812975
50% Corpus,6,asymmetric,symmetric,0.6861428340685858
50% Corpus,7,0.01,0.01,0.6031663976044391
50% Corpus,7,0.01,0.31,0.5628046251449723
50% Corpus,7,0.01,0.61,0.5692712691687469
50% Corpus,7,0.01,0.9099999999999999,0.5672885204933136
50% Corpus,7,0.01,symmetric,0.602212515004686
50% Corpus,7,0.31,0.01,0.6513010098018963
50% Corpus,7,0.31,0.31,0.6399431247693235
50% Corpus,7,0.31,0.61,0.6151445329580004
50% Corpus,7,0.31,0.9099999999999999,0.6210346679021951
50% Corpus,7,0.31,symmetric,0.6555984707535014
50% Corpus,7,0.61,0.01,0.640317342318713
50% Corpus,7,0.61,0.31,0.6522594218665059
50% Corpus,7,0.61,0.61,0.65308967740426
50% Corpus,7,0.61,0.9099999999999999,0.6597265908467853
50% Corpus,7,0.61,symmetric,0.6396361885140712
50% Corpus,7,0.9099999999999999,0.01,0.6127655088011281
50% Corpus,7,0.9099999999999999,0.31,0.6158157505421096
50% Corpus,7,0.9099999999999999,0.61,0.6426416247483149
50% Corpus,7,0.9099999999999999,0.9099999999999999,0.6391838416444885
50% Corpus,7,0.9099999999999999,symmetric,0.6229819467450672
50% Corpus,7,symmetric,0.01,0.5962987733949527
50% Corpus,7,symmetric,0.31,0.5926383035631324
50% Corpus,7,symmetric,0.61,0.5870821772803766
50% Corpus,7,symmetric,0.9099999999999999,0.5806392702461141
50% Corpus,7,symmetric,symmetric,0.5829220559100075
50% Corpus,7,asymmetric,0.01,0.6641271471113339
50% Corpus,7,asymmetric,0.31,0.6804534911015316
50% Corpus,7,asymmetric,0.61,0.6486362563279319
50% Corpus,7,asymmetric,0.9099999999999999,0.643119754812975
50% Corpus,7,asymmetric,symmetric,0.6861428340685858
50% Corpus,8,0.01,0.01,0.6031663976044391
50% Corpus,8,0.01,0.31,0.5628046251449723
50% Corpus,8,0.01,0.61,0.5692712691687469
50% Corpus,8,0.01,0.9099999999999999,0.5672885204933136
50% Corpus,8,0.01,symmetric,0.602212515004686
50% Corpus,8,0.31,0.01,0.6513010098018963
50% Corpus,8,0.31,0.31,0.6399431247693235
50% Corpus,8,0.31,0.61,0.6151445329580004
50% Corpus,8,0.31,0.9099999999999999,0.6210346679021951
50% Corpus,8,0.31,symmetric,0.6555984707535014
50% Corpus,8,0.61,0.01,0.640317342318713
50% Corpus,8,0.61,0.31,0.6522594218665059
50% Corpus,8,0.61,0.61,0.65308967740426
50% Corpus,8,0.61,0.9099999999999999,0.6597265908467853
50% Corpus,8,0.61,symmetric,0.6396361885140712
50% Corpus,8,0.9099999999999999,0.01,0.6127655088011281
50% Corpus,8,0.9099999999999999,0.31,0.6158157505421096
50% Corpus,8,0.9099999999999999,0.61,0.6426416247483149
50% Corpus,8,0.9099999999999999,0.9099999999999999,0.6391838416444885
50% Corpus,8,0.9099999999999999,symmetric,0.6229819467450672
50% Corpus,8,symmetric,0.01,0.5962987733949527
50% Corpus,8,symmetric,0.31,0.5926383035631324
50% Corpus,8,symmetric,0.61,0.5870821772803766
50% Corpus,8,symmetric,0.9099999999999999,0.5806392702461141
50% Corpus,8,symmetric,symmetric,0.5829220559100075
50% Corpus,8,asymmetric,0.01,0.6641271471113339
50% Corpus,8,asymmetric,0.31,0.6804534911015316
50% Corpus,8,asymmetric,0.61,0.6486362563279319
50% Corpus,8,asymmetric,0.9099999999999999,0.643119754812975
50% Corpus,8,asymmetric,symmetric,0.6861428340685858
50% Corpus,9,0.01,0.01,0.6031663976044391
50% Corpus,9,0.01,0.31,0.5628046251449723
50% Corpus,9,0.01,0.61,0.5692712691687469
50% Corpus,9,0.01,0.9099999999999999,0.5672885204933136
50% Corpus,9,0.01,symmetric,0.602212515004686
50% Corpus,9,0.31,0.01,0.6513010098018963
50% Corpus,9,0.31,0.31,0.6399431247693235
50% Corpus,9,0.31,0.61,0.6151445329580004
50% Corpus,9,0.31,0.9099999999999999,0.6210346679021951
50% Corpus,9,0.31,symmetric,0.6555984707535014
50% Corpus,9,0.61,0.01,0.640317342318713
50% Corpus,9,0.61,0.31,0.6522594218665059
50% Corpus,9,0.61,0.61,0.65308967740426
50% Corpus,9,0.61,0.9099999999999999,0.6597265908467853
50% Corpus,9,0.61,symmetric,0.6396361885140712
50% Corpus,9,0.9099999999999999,0.01,0.6127655088011281
50% Corpus,9,0.9099999999999999,0.31,0.6158157505421096
50% Corpus,9,0.9099999999999999,0.61,0.6426416247483149
50% Corpus,9,0.9099999999999999,0.9099999999999999,0.6391838416444885
50% Corpus,9,0.9099999999999999,symmetric,0.6229819467450672
50% Corpus,9,symmetric,0.01,0.5962987733949527
50% Corpus,9,symmetric,0.31,0.5926383035631324
50% Corpus,9,symmetric,0.61,0.5870821772803766
50% Corpus,9,symmetric,0.9099999999999999,0.5806392702461141
50% Corpus,9,symmetric,symmetric,0.5829220559100075
50% Corpus,9,asymmetric,0.01,0.6641271471113339
50% Corpus,9,asymmetric,0.31,0.6804534911015316
50% Corpus,9,asymmetric,0.61,0.6486362563279319
50% Corpus,9,asymmetric,0.9099999999999999,0.643119754812975
50% Corpus,9,asymmetric,symmetric,0.6861428340685858
50% Corpus,10,0.01,0.01,0.6031663976044391
50% Corpus,10,0.01,0.31,0.5628046251449723
50% Corpus,10,0.01,0.61,0.5692712691687469
50% Corpus,10,0.01,0.9099999999999999,0.5672885204933136
50% Corpus,10,0.01,symmetric,0.602212515004686
50% Corpus,10,0.31,0.01,0.6513010098018963
50% Corpus,10,0.31,0.31,0.6399431247693235
50% Corpus,10,0.31,0.61,0.6151445329580004
50% Corpus,10,0.31,0.9099999999999999,0.6210346679021951
50% Corpus,10,0.31,symmetric,0.6555984707535014
50% Corpus,10,0.61,0.01,0.640317342318713
50% Corpus,10,0.61,0.31,0.6522594218665059
50% Corpus,10,0.61,0.61,0.65308967740426
50% Corpus,10,0.61,0.9099999999999999,0.6597265908467853
50% Corpus,10,0.61,symmetric,0.6396361885140712
50% Corpus,10,0.9099999999999999,0.01,0.6127655088011281
50% Corpus,10,0.9099999999999999,0.31,0.6158157505421096
50% Corpus,10,0.9099999999999999,0.61,0.6426416247483149
50% Corpus,10,0.9099999999999999,0.9099999999999999,0.6391838416444885
50% Corpus,10,0.9099999999999999,symmetric,0.6229819467450672
50% Corpus,10,symmetric,0.01,0.5962987733949527
50% Corpus,10,symmetric,0.31,0.5926383035631324
50% Corpus,10,symmetric,0.61,0.5870821772803766
50% Corpus,10,symmetric,0.9099999999999999,0.5806392702461141
50% Corpus,10,symmetric,symmetric,0.5829220559100075
50% Corpus,10,asymmetric,0.01,0.6641271471113339
50% Corpus,10,asymmetric,0.31,0.6804534911015316
50% Corpus,10,asymmetric,0.61,0.6486362563279319
50% Corpus,10,asymmetric,0.9099999999999999,0.643119754812975
50% Corpus,10,asymmetric,symmetric,0.6861428340685858
100% Corpus,2,0.01,0.01,0.69018746894598
100% Corpus,2,0.01,0.31,0.6619368424591854
100% Corpus,2,0.01,0.61,0.6478722510417079
100% Corpus,2,0.01,0.9099999999999999,0.6628956940362587
100% Corpus,2,0.01,symmetric,0.6782223306424968
100% Corpus,2,0.31,0.01,0.647863956168625
100% Corpus,2,0.31,0.31,0.6529158858401691
100% Corpus,2,0.31,0.61,0.6669616613999036
100% Corpus,2,0.31,0.9099999999999999,0.6692816827826169
100% Corpus,2,0.31,symmetric,0.6509539157306036
100% Corpus,2,0.61,0.01,0.6550922362645878
100% Corpus,2,0.61,0.31,0.658992752081224
100% Corpus,2,0.61,0.61,0.6723533531857611
100% Corpus,2,0.61,0.9099999999999999,0.6747562622038589
100% Corpus,2,0.61,symmetric,0.6620342917809101
100% Corpus,2,0.9099999999999999,0.01,0.6665202908843546
100% Corpus,2,0.9099999999999999,0.31,0.6612325193164332
100% Corpus,2,0.9099999999999999,0.61,0.6696260777358833
100% Corpus,2,0.9099999999999999,0.9099999999999999,0.658870308484478
100% Corpus,2,0.9099999999999999,symmetric,0.6637804297301992
100% Corpus,2,symmetric,0.01,0.6518738484420473
100% Corpus,2,symmetric,0.31,0.6547895711582153
100% Corpus,2,symmetric,0.61,0.6177620494257451
100% Corpus,2,symmetric,0.9099999999999999,0.6232570104570239
100% Corpus,2,symmetric,symmetric,0.6535241440981872
100% Corpus,2,asymmetric,0.01,0.7062605583217911
100% Corpus,2,asymmetric,0.31,0.7102978665756514
100% Corpus,2,asymmetric,0.61,0.6440597658092476
100% Corpus,2,asymmetric,0.9099999999999999,0.638176709498188
100% Corpus,2,asymmetric,symmetric,0.7124443436516925
100% Corpus,3,0.01,0.01,0.69018746894598
100% Corpus,3,0.01,0.31,0.6619368424591854
100% Corpus,3,0.01,0.61,0.6478722510417079
100% Corpus,3,0.01,0.9099999999999999,0.6628956940362587
100% Corpus,3,0.01,symmetric,0.6782223306424968
100% Corpus,3,0.31,0.01,0.647863956168625
100% Corpus,3,0.31,0.31,0.6529158858401691
100% Corpus,3,0.31,0.61,0.6669616613999036
100% Corpus,3,0.31,0.9099999999999999,0.6692816827826169
100% Corpus,3,0.31,symmetric,0.6509539157306036
100% Corpus,3,0.61,0.01,0.6550922362645878
100% Corpus,3,0.61,0.31,0.658992752081224
100% Corpus,3,0.61,0.61,0.6723533531857611
100% Corpus,3,0.61,0.9099999999999999,0.6747562622038589
100% Corpus,3,0.61,symmetric,0.6620342917809101
100% Corpus,3,0.9099999999999999,0.01,0.6665202908843546
100% Corpus,3,0.9099999999999999,0.31,0.6612325193164332
100% Corpus,3,0.9099999999999999,0.61,0.6696260777358833
100% Corpus,3,0.9099999999999999,0.9099999999999999,0.658870308484478
100% Corpus,3,0.9099999999999999,symmetric,0.6637804297301992
100% Corpus,3,symmetric,0.01,0.6518738484420473
100% Corpus,3,symmetric,0.31,0.6547895711582153
100% Corpus,3,symmetric,0.61,0.6177620494257451
100% Corpus,3,symmetric,0.9099999999999999,0.6232570104570239
100% Corpus,3,symmetric,symmetric,0.6535241440981872
100% Corpus,3,asymmetric,0.01,0.7062605583217911
100% Corpus,3,asymmetric,0.31,0.7102978665756514
100% Corpus,3,asymmetric,0.61,0.6440597658092476
100% Corpus,3,asymmetric,0.9099999999999999,0.638176709498188
100% Corpus,3,asymmetric,symmetric,0.7124443436516925
100% Corpus,4,0.01,0.01,0.69018746894598
100% Corpus,4,0.01,0.31,0.6619368424591854
100% Corpus,4,0.01,0.61,0.6478722510417079
100% Corpus,4,0.01,0.9099999999999999,0.6628956940362587
100% Corpus,4,0.01,symmetric,0.6782223306424968
100% Corpus,4,0.31,0.01,0.647863956168625
100% Corpus,4,0.31,0.31,0.6529158858401691
100% Corpus,4,0.31,0.61,0.6669616613999036
100% Corpus,4,0.31,0.9099999999999999,0.6692816827826169
100% Corpus,4,0.31,symmetric,0.6509539157306036
100% Corpus,4,0.61,0.01,0.6550922362645878
100% Corpus,4,0.61,0.31,0.658992752081224
100% Corpus,4,0.61,0.61,0.6723533531857611
100% Corpus,4,0.61,0.9099999999999999,0.6747562622038589
100% Corpus,4,0.61,symmetric,0.6620342917809101
100% Corpus,4,0.9099999999999999,0.01,0.6665202908843546
100% Corpus,4,0.9099999999999999,0.31,0.6612325193164332
100% Corpus,4,0.9099999999999999,0.61,0.6696260777358833
100% Corpus,4,0.9099999999999999,0.9099999999999999,0.658870308484478
100% Corpus,4,0.9099999999999999,symmetric,0.6637804297301992
100% Corpus,4,symmetric,0.01,0.6518738484420473
100% Corpus,4,symmetric,0.31,0.6547895711582153
100% Corpus,4,symmetric,0.61,0.6177620494257451
100% Corpus,4,symmetric,0.9099999999999999,0.6232570104570239
100% Corpus,4,symmetric,symmetric,0.6535241440981872
100% Corpus,4,asymmetric,0.01,0.7062605583217911
100% Corpus,4,asymmetric,0.31,0.7102978665756514
100% Corpus,4,asymmetric,0.61,0.6440597658092476
100% Corpus,4,asymmetric,0.9099999999999999,0.638176709498188
100% Corpus,4,asymmetric,symmetric,0.7124443436516925
100% Corpus,5,0.01,0.01,0.69018746894598
100% Corpus,5,0.01,0.31,0.6619368424591854
100% Corpus,5,0.01,0.61,0.6478722510417079
100% Corpus,5,0.01,0.9099999999999999,0.6628956940362587
100% Corpus,5,0.01,symmetric,0.6782223306424968
100% Corpus,5,0.31,0.01,0.647863956168625
100% Corpus,5,0.31,0.31,0.6529158858401691
100% Corpus,5,0.31,0.61,0.6669616613999036
100% Corpus,5,0.31,0.9099999999999999,0.6692816827826169
100% Corpus,5,0.31,symmetric,0.6509539157306036
100% Corpus,5,0.61,0.01,0.6550922362645878
100% Corpus,5,0.61,0.31,0.658992752081224
100% Corpus,5,0.61,0.61,0.6723533531857611
100% Corpus,5,0.61,0.9099999999999999,0.6747562622038589
100% Corpus,5,0.61,symmetric,0.6620342917809101
100% Corpus,5,0.9099999999999999,0.01,0.6665202908843546
100% Corpus,5,0.9099999999999999,0.31,0.6612325193164332
100% Corpus,5,0.9099999999999999,0.61,0.6696260777358833
100% Corpus,5,0.9099999999999999,0.9099999999999999,0.658870308484478
100% Corpus,5,0.9099999999999999,symmetric,0.6637804297301992
100% Corpus,5,symmetric,0.01,0.6518738484420473
100% Corpus,5,symmetric,0.31,0.6547895711582153
100% Corpus,5,symmetric,0.61,0.6177620494257451
100% Corpus,5,symmetric,0.9099999999999999,0.6232570104570239
100% Corpus,5,symmetric,symmetric,0.6535241440981872
100% Corpus,5,asymmetric,0.01,0.7062605583217911
100% Corpus,5,asymmetric,0.31,0.7102978665756514
100% Corpus,5,asymmetric,0.61,0.6440597658092476
100% Corpus,5,asymmetric,0.9099999999999999,0.638176709498188
100% Corpus,5,asymmetric,symmetric,0.7124443436516925
100% Corpus,6,0.01,0.01,0.69018746894598
100% Corpus,6,0.01,0.31,0.6619368424591854
100% Corpus,6,0.01,0.61,0.6478722510417079
100% Corpus,6,0.01,0.9099999999999999,0.6628956940362587
100% Corpus,6,0.01,symmetric,0.6782223306424968
100% Corpus,6,0.31,0.01,0.647863956168625
100% Corpus,6,0.31,0.31,0.6529158858401691
100% Corpus,6,0.31,0.61,0.6669616613999036
100% Corpus,6,0.31,0.9099999999999999,0.6692816827826169
100% Corpus,6,0.31,symmetric,0.6509539157306036
100% Corpus,6,0.61,0.01,0.6550922362645878
100% Corpus,6,0.61,0.31,0.658992752081224
100% Corpus,6,0.61,0.61,0.6723533531857611
100% Corpus,6,0.61,0.9099999999999999,0.6747562622038589
100% Corpus,6,0.61,symmetric,0.6620342917809101
100% Corpus,6,0.9099999999999999,0.01,0.6665202908843546
100% Corpus,6,0.9099999999999999,0.31,0.6612325193164332
100% Corpus,6,0.9099999999999999,0.61,0.6696260777358833
100% Corpus,6,0.9099999999999999,0.9099999999999999,0.658870308484478
100% Corpus,6,0.9099999999999999,symmetric,0.6637804297301992
100% Corpus,6,symmetric,0.01,0.6518738484420473
100% Corpus,6,symmetric,0.31,0.6547895711582153
100% Corpus,6,symmetric,0.61,0.6177620494257451
100% Corpus,6,symmetric,0.9099999999999999,0.6232570104570239
100% Corpus,6,symmetric,symmetric,0.6535241440981872
100% Corpus,6,asymmetric,0.01,0.7062605583217911
100% Corpus,6,asymmetric,0.31,0.7102978665756514
100% Corpus,6,asymmetric,0.61,0.6440597658092476
100% Corpus,6,asymmetric,0.9099999999999999,0.638176709498188
100% Corpus,6,asymmetric,symmetric,0.7124443436516925
100% Corpus,7,0.01,0.01,0.69018746894598
100% Corpus,7,0.01,0.31,0.6619368424591854
100% Corpus,7,0.01,0.61,0.6478722510417079
100% Corpus,7,0.01,0.9099999999999999,0.6628956940362587
100% Corpus,7,0.01,symmetric,0.6782223306424968
100% Corpus,7,0.31,0.01,0.647863956168625
100% Corpus,7,0.31,0.31,0.6529158858401691
100% Corpus,7,0.31,0.61,0.6669616613999036
100% Corpus,7,0.31,0.9099999999999999,0.6692816827826169
100% Corpus,7,0.31,symmetric,0.6509539157306036
100% Corpus,7,0.61,0.01,0.6550922362645878
100% Corpus,7,0.61,0.31,0.658992752081224
100% Corpus,7,0.61,0.61,0.6723533531857611
100% Corpus,7,0.61,0.9099999999999999,0.6747562622038589
100% Corpus,7,0.61,symmetric,0.6620342917809101
100% Corpus,7,0.9099999999999999,0.01,0.6665202908843546
100% Corpus,7,0.9099999999999999,0.31,0.6612325193164332
100% Corpus,7,0.9099999999999999,0.61,0.6696260777358833
100% Corpus,7,0.9099999999999999,0.9099999999999999,0.658870308484478
100% Corpus,7,0.9099999999999999,symmetric,0.6637804297301992
100% Corpus,7,symmetric,0.01,0.6518738484420473
100% Corpus,7,symmetric,0.31,0.6547895711582153
100% Corpus,7,symmetric,0.61,0.6177620494257451
100% Corpus,7,symmetric,0.9099999999999999,0.6232570104570239
100% Corpus,7,symmetric,symmetric,0.6535241440981872
100% Corpus,7,asymmetric,0.01,0.7062605583217911
100% Corpus,7,asymmetric,0.31,0.7102978665756514
100% Corpus,7,asymmetric,0.61,0.6440597658092476
100% Corpus,7,asymmetric,0.9099999999999999,0.638176709498188
100% Corpus,7,asymmetric,symmetric,0.7124443436516925
100% Corpus,8,0.01,0.01,0.69018746894598
100% Corpus,8,0.01,0.31,0.6619368424591854
100% Corpus,8,0.01,0.61,0.6478722510417079
100% Corpus,8,0.01,0.9099999999999999,0.6628956940362587
100% Corpus,8,0.01,symmetric,0.6782223306424968
100% Corpus,8,0.31,0.01,0.647863956168625
100% Corpus,8,0.31,0.31,0.6529158858401691
100% Corpus,8,0.31,0.61,0.6669616613999036
100% Corpus,8,0.31,0.9099999999999999,0.6692816827826169
100% Corpus,8,0.31,symmetric,0.6509539157306036
100% Corpus,8,0.61,0.01,0.6550922362645878
100% Corpus,8,0.61,0.31,0.658992752081224
100% Corpus,8,0.61,0.61,0.6723533531857611
100% Corpus,8,0.61,0.9099999999999999,0.6747562622038589
100% Corpus,8,0.61,symmetric,0.6620342917809101
100% Corpus,8,0.9099999999999999,0.01,0.6665202908843546
100% Corpus,8,0.9099999999999999,0.31,0.6612325193164332
100% Corpus,8,0.9099999999999999,0.61,0.6696260777358833
100% Corpus,8,0.9099999999999999,0.9099999999999999,0.658870308484478
100% Corpus,8,0.9099999999999999,symmetric,0.6637804297301992
100% Corpus,8,symmetric,0.01,0.6518738484420473
100% Corpus,8,symmetric,0.31,0.6547895711582153
100% Corpus,8,symmetric,0.61,0.6177620494257451
100% Corpus,8,symmetric,0.9099999999999999,0.6232570104570239
100% Corpus,8,symmetric,symmetric,0.6535241440981872
100% Corpus,8,asymmetric,0.01,0.7062605583217911
100% Corpus,8,asymmetric,0.31,0.7102978665756514
100% Corpus,8,asymmetric,0.61,0.6440597658092476
100% Corpus,8,asymmetric,0.9099999999999999,0.638176709498188
100% Corpus,8,asymmetric,symmetric,0.7124443436516925
100% Corpus,9,0.01,0.01,0.69018746894598
100% Corpus,9,0.01,0.31,0.6619368424591854
100% Corpus,9,0.01,0.61,0.6478722510417079
100% Corpus,9,0.01,0.9099999999999999,0.6628956940362587
100% Corpus,9,0.01,symmetric,0.6782223306424968
100% Corpus,9,0.31,0.01,0.647863956168625
100% Corpus,9,0.31,0.31,0.6529158858401691
100% Corpus,9,0.31,0.61,0.6669616613999036
100% Corpus,9,0.31,0.9099999999999999,0.6692816827826169
100% Corpus,9,0.31,symmetric,0.6509539157306036
100% Corpus,9,0.61,0.01,0.6550922362645878
100% Corpus,9,0.61,0.31,0.658992752081224
100% Corpus,9,0.61,0.61,0.6723533531857611
100% Corpus,9,0.61,0.9099999999999999,0.6747562622038589
100% Corpus,9,0.61,symmetric,0.6620342917809101
100% Corpus,9,0.9099999999999999,0.01,0.6665202908843546
100% Corpus,9,0.9099999999999999,0.31,0.6612325193164332
100% Corpus,9,0.9099999999999999,0.61,0.6696260777358833
100% Corpus,9,0.9099999999999999,0.9099999999999999,0.658870308484478
100% Corpus,9,0.9099999999999999,symmetric,0.6637804297301992
100% Corpus,9,symmetric,0.01,0.6518738484420473
100% Corpus,9,symmetric,0.31,0.6547895711582153
100% Corpus,9,symmetric,0.61,0.6177620494257451
100% Corpus,9,symmetric,0.9099999999999999,0.6232570104570239
100% Corpus,9,symmetric,symmetric,0.6535241440981872
100% Corpus,9,asymmetric,0.01,0.7062605583217911
100% Corpus,9,asymmetric,0.31,0.7102978665756514
100% Corpus,9,asymmetric,0.61,0.6440597658092476
100% Corpus,9,asymmetric,0.9099999999999999,0.638176709498188
100% Corpus,9,asymmetric,symmetric,0.7124443436516925
100% Corpus,10,0.01,0.01,0.69018746894598
100% Corpus,10,0.01,0.31,0.6619368424591854
100% Corpus,10,0.01,0.61,0.6478722510417079
100% Corpus,10,0.01,0.9099999999999999,0.6628956940362587
100% Corpus,10,0.01,symmetric,0.6782223306424968
100% Corpus,10,0.31,0.01,0.647863956168625
100% Corpus,10,0.31,0.31,0.6529158858401691
100% Corpus,10,0.31,0.61,0.6669616613999036
100% Corpus,10,0.31,0.9099999999999999,0.6692816827826169
100% Corpus,10,0.31,symmetric,0.6509539157306036
100% Corpus,10,0.61,0.01,0.6550922362645878
100% Corpus,10,0.61,0.31,0.658992752081224
100% Corpus,10,0.61,0.61,0.6723533531857611
100% Corpus,10,0.61,0.9099999999999999,0.6747562622038589
100% Corpus,10,0.61,symmetric,0.6620342917809101
100% Corpus,10,0.9099999999999999,0.01,0.6665202908843546
100% Corpus,10,0.9099999999999999,0.31,0.6612325193164332
100% Corpus,10,0.9099999999999999,0.61,0.6696260777358833
100% Corpus,10,0.9099999999999999,0.9099999999999999,0.658870308484478
100% Corpus,10,0.9099999999999999,symmetric,0.6637804297301992
100% Corpus,10,symmetric,0.01,0.6518738484420473
100% Corpus,10,symmetric,0.31,0.6547895711582153
100% Corpus,10,symmetric,0.61,0.6177620494257451
100% Corpus,10,symmetric,0.9099999999999999,0.6232570104570239
100% Corpus,10,symmetric,symmetric,0.6535241440981872
100% Corpus,10,asymmetric,0.01,0.7062605583217911
100% Corpus,10,asymmetric,0.31,0.7102978665756514
100% Corpus,10,asymmetric,0.61,0.6440597658092476
100% Corpus,10,asymmetric,0.9099999999999999,0.638176709498188
100% Corpus,10,asymmetric,symmetric,0.7124443436516925
