#	type	key	pattern	pilot	spec	freq	dFreq	ind
1	T	nn: investment objective	N N	Investment objective	6.03	108	107	0.99
2	T	n: sub-fund	N	sub-fund	5.11	13	11	0.54
3	T	nn: factor style	N N	factor styles	5.08	12	12	0.92
4	T	an: active exposure	A N	active exposures	5.08	12	12	1.00
5	T	ann: high yield bond	A N N	High Yield bonds	4.78	6	6	1.00
6	T	ann: small cap equity	A N N	small cap equities	4.60	4	4	0.25
7	T	an: european equity	A N	European equities	4.60	4	4	0.75
8	T	ncnn: investment and capital appreciation	N C N N	investments and capital appreciation	4.47	3	3	1.00
9	T	nn: esg company	N N	ESG companies	4.47	3	3	1.00
10	T	nn: basis point	N N	basis points	4.47	3	2	0.67
11	T	ann: minimum investment period	A N N	minimum investment period	4.47	3	2	1.00
12	T	nnn: market price change	N N N	market price changes	4.47	3	3	1.00
13	T	an: best-in-class approach	A N	Best-in-Class approach	4.47	3	3	1.00
14	T	ann: real estate company	A N N	real estate companies	4.47	3	3	0.67
15	T	an: absolute return	A N	absolute return	4.47	3	3	0.33
16	T	an: convertible bond	A N	convertible bonds	4.47	3	3	0.67
17	T	npn: volatility with target	N P N	volatility with a target	4.47	3	3	1.00
18	T	nn: investment growth	N N	investment growth	4.47	3	3	1.00
19	T	nn: capitalisation share	N N	Capitalisation shares	4.30	2	2	1.00
20	T	an: forward-looking statement	A N	forward-looking statement	4.30	2	2	1.00
21	T	an: global equity	A N	global equities	4.30	2	2	0.50
22	T	npan: portfolio of high yield	N P A N	portfolio of High Yield	4.30	2	2	1.00
23	T	ann: mid cap equity	A N N	mid cap equities	4.30	2	2	0.50
24	T	nn: eurozone equity	N N	Eurozone equities	4.30	2	2	0.50
25	T	anpn: standard deviation of return	A N P N	standard deviation of returns	4.30	2	2	1.00
26	T	anann: absolute return diversified sub-fund target	A N A N N	absolute return diversified sub-fund targets	4.30	2	2	1.00
27	T	npn: portfolio of euro	N P N	portfolio of euro	4.30	2	2	0.50
28	T	an: 3-month period	A N	3-month period	4.30	2	1	1.00
29	T	nn: income universe	N N	income universe	4.30	2	2	0.50
30	T	an: regular income	A N	regular income	4.30	2	2	1.00
31	T	aan: annualized standard deviation	A A N	annualized standard deviation	4.30	2	2	1.00
32	T	anpn: wide set of strategy	A N P N	wide set of strategies	4.30	2	2	1.00
33	T	npn: form of dividend	N P N	form of dividend	4.30	2	2	1.00
34	T	nn: distribution share	N N	Distribution shares	4.30	2	2	1.00
35	T	nnn: investment grade bond	N N N	Investment Grade bonds	4.30	2	2	1.00
36	T	annn: diversified sub-fund target volatility	A N N N	diversified sub-fund targets volatility	4.30	2	2	1.00
37	T	a: annualised	A	annualised	4.30	4	2	0.50
38	T	an: secondary basis	A N	secondary basis	4.30	2	2	1.00
39	T	an: medium term	A N	medium term	4.12	93	91	0.99
40	T	n: low-volatility	N	low-volatility	4.00	1	1	1.00
41	T	an: composite index	A N	composite index	4.00	1	1	1.00
42	T	npncn: degree of liquidity and diversification	N P N C N	degree of liquidity and diversification	4.00	1	1	1.00
43	T	nn: energy transition	N N	energy transition	4.00	1	1	1.00
44	T	an: human development	A N	human development	4.00	1	1	1.00
45	T	nn: barclays agg	N N	Barclays Agg	4.00	1	1	1.00
46	T	n: volatility	N	volatility	3.36	10	9	0.20
47	T	r: primarily	R	primarily	3.33	63	63	1.00
48	T	n: euro	N	euro	3.30	17	17	0.82
49	T	an: environmental project	A N	environmental projects	3.30	2	2	1.00
50	T	an: corporate bond	A N	corporate bonds	3.28	9	9	0.78
51	T	an: japanese equity	A N	Japanese equities	3.22	2	2	0.50
52	T	a: medium-term	A	medium-term	3.15	2	2	1.00
52	V[mg]	an: medium term	A N	medium term	4.12	93	91	0.99
53	T	an: european company	A N	European companies	3.11	3	3	1.00
54	T	a: asian	A	Asian	3.03	3	3	0.67
55	T	n: equity	N	equities	2.80	42	42	0.24
56	T	n: asset	N	assets	2.76	87	85	0.98
57	T	r: smart	R	SMaRT	2.72	1	1	1.00
58	T	n: duration	N	duration	2.69	4	4	1.00
59	T	a: global	A	global	2.62	4	4	0.50
60	T	n: bond	N	bonds	2.59	34	34	0.32
61	T	nn: climate change	N N	climate change	2.52	1	1	1.00
62	T	n: mitigation	N	mitigation	2.47	1	1	1.00
63	T	n: portfolio	N	portfolio	2.41	16	16	0.44
64	T	a: japan	A	Japan	2.38	3	3	1.00
65	T	nn: market condition	N N	market conditions	2.37	2	2	1.00
66	T	r: sustainably	R	Sustainably	2.31	2	1	1.00
67	T	r: responsibly	R	Responsibly	2.22	1	1	1.00
68	T	nn: capital growth	N N	capital growth	2.15	2	2	1.00
69	T	a: chinese	A	Chinese	2.09	3	2	0.67
70	T	n: taiwan	N	Taiwan	2.07	1	1	1.00
71	T	n: distribution	N	Distribution	2.03	4	3	0.25
72	T	an: low level	A N	low level	2.01	2	2	1.00
73	T	n: strategy	N	strategy	1.94	15	15	0.80
74	T	n: prospectus	N	Prospectus	1.92	1	1	1.00
75	T	n: risk	N	risk	1.84	18	17	0.83
76	T	r: actively	R	actively	1.79	2	2	1.00
77	T	r: approximately	R	approximately	1.76	2	2	1.00
78	T	n: adaptation	N	adaptation	1.74	1	1	1.00
79	T	n: target	N	target	1.63	9	7	0.22
80	T	n: dividend	N	dividend	1.61	6	6	0.50
81	T	n: capital	N	capital	1.61	9	9	0.11
82	T	n: guarantee	N	guarantee	1.61	2	2	1.00
83	T	n: profitability	N	profitability	1.55	1	1	1.00
84	T	a: consistent	A	consistent	1.52	1	1	1.00
85	T	n: momentum	N	momentum	1.48	1	1	1.00
86	T	n: participation	N	participation	1.47	1	1	1.00
87	T	n: return	N	returns	1.46	10	7	0.30
88	T	n: income	N	income	1.45	7	7	0.43
89	T	a: high	A	High	1.42	10	10	0.20
90	T	n: order	N	order	1.41	12	12	1.00
91	T	nn: hong kong	N N	Hong Kong	1.33	1	1	1.00
92	T	n: performance	N	performance	1.12	6	6	0.83
93	T	a: local	A	local	1.07	1	1	1.00
94	T	n: company	N	companies	1.02	22	22	0.32
95	T	n: average	N	average	0.98	1	1	1.00
96	T	n: inflation	N	inflation	0.92	1	1	1.00
97	T	n: solution	N	solutions	0.90	1	1	1.00
98	T	n: rate	N	rate	0.88	4	3	0.25
99	T	n: investor	N	investors	0.85	1	1	1.00
100	T	n: fund	N	Fund	0.79	2	1	0.50
101	T	n: activity	N	activities	0.62	1	1	1.00
102	T	n: process	N	process	0.54	1	1	1.00
103	T	n: month	N	months	0.52	4	3	0.75
104	T	n: line	N	line	0.41	1	1	1.00
105	T	n: europe	N	Europe	0.39	1	1	1.00
106	T	n: country	N	countries	0.27	1	1	1.00
107	T	n: time	N	time	0.11	1	1	1.00
108	T	n: year	N	year	0.06	1	1	1.00
